Tools/simavr/simavr/gtkwave_trace.vcd
$timescale 10ns $end
$scope module logic $end
$var wire 8 ! UDR0 $end
$var wire 1 " UDRE0 $end
$var wire 8 # GPIOR1 $end
$upscope $end
$enddefinitions $end
$dumpvars
bxxxxxxxx !
x"
bxxxxxxxx #
$end
#725
b01001000 !
#1237
0"
#29550
b01001000 !
#29575
b01001000 #
#30125
1"
#30175
b01100101 !
#30687
0"
#59000
b01100101 !
#59025
b01100101 #
#59575
1"
#59625
b01111001 !
#60137
0"
#88450
b01111001 !
#88475
b01111001 #
#89025
1"
#89075
b00100000 !
#89587
0"
#117900
b00100000 !
#117925
b00100000 #
#118475
1"
#118525
b01110100 !
#119037
0"
#147350
b01110100 !
#147375
b01110100 #
#147925
1"
#147975
b01101000 !
#148487
0"
#176800
b01101000 !
#176825
b01101000 #
#177375
1"
#177425
b01100101 !
#177937
0"
#206250
b01100101 !
#206275
b01100101 #
#206825
1"
#206875
b01110010 !
#207387
0"
#235700
b01110010 !
#235725
b01110010 #
#236275
1"
#236325
b01100101 !
#236837
0"
#265150
b01100101 !
#265175
b01100101 #
#265725
1"
#265775
b00101100 !
#266287
0"
#294600
b00101100 !
#294625
b00101100 #
#295175
1"
#295225
b00100000 !
#295737
0"
#324050
b00100000 !
#324075
b00100000 #
#324625
1"
#324675
b01110100 !
#325187
0"
#353500
b01110100 !
#353525
b01110100 #
#354075
1"
#354125
b01101000 !
#354637
0"
#382950
b01101000 !
#382975
b01101000 #
#383525
1"
#383575
b01101001 !
#384087
0"
#412400
b01101001 !
#412425
b01101001 #
#412975
1"
#413025
b01110011 !
#413537
0"
#441850
b01110011 !
#441875
b01110011 #
#442425
1"
#442475
b00100000 !
#442987
0"
#471300
b00100000 !
#471325
b00100000 #
#471875
1"
#471925
b01110011 !
#472437
0"
#500750
b01110011 !
#500775
b01110011 #
#501325
1"
#501375
b01101000 !
#501887
0"
#530200
b01101000 !
#530225
b01101000 #
#530775
1"
#530825
b01101111 !
#531337
0"
#559650
b01101111 !
#559675
b01101111 #
#560225
1"
#560275
b01110101 !
#560787
0"
#589100
b01110101 !
#589125
b01110101 #
#589675
1"
#589725
b01101100 !
#590237
0"
#618550
b01101100 !
#618575
b01101100 #
#619125
1"
#619175
b01100100 !
#619687
0"
#648000
b01100100 !
#648025
b01100100 #
#648575
1"
#648625
b00100000 !
#649137
0"
#677450
b00100000 !
#677475
b00100000 #
#678025
1"
#678075
b01100010 !
#678587
0"
#706900
b01100010 !
#706925
b01100010 #
#707475
1"
#707525
b01100101 !
#708037
0"
#736350
b01100101 !
#736375
b01100101 #
#736925
1"
#736975
b00100000 !
#737487
0"
#765800
b00100000 !
#765825
b00100000 #
#766375
1"
#766425
b01110010 !
#766937
0"
#795250
b01110010 !
#795275
b01110010 #
#795825
1"
#795875
b01100101 !
#796387
0"
#824700
b01100101 !
#824725
b01100101 #
#825275
1"
#825325
b01100011 !
#825837
0"
#854150
b01100011 !
#854175
b01100011 #
#854725
1"
#854775
b01100101 !
#855287
0"
#883600
b01100101 !
#883625
b01100101 #
#884175
1"
#884225
b01101001 !
#884737
0"
#913050
b01101001 !
#913075
b01101001 #
#913625
1"
#913675
b01110110 !
#914187
0"
#942500
b01110110 !
#942525
b01110110 #
#943075
1"
#943125
b01100101 !
#943637
0"
#971950
b01100101 !
#971975
b01100101 #
#972525
1"
#972575
b01100100 !
#973087
0"
#1001400
b01100100 !
#1001425
b01100100 #
#1001975
1"
#1002025
b00100000 !
#1002537
0"
#1030850
b00100000 !
#1030875
b00100000 #
#1031425
1"
#1031475
b01100010 !
#1031987
0"
#1060300
b01100010 !
#1060325
b01100010 #
#1060875
1"
#1060925
b01100001 !
#1061437
0"
#1089750
b01100001 !
#1089775
b01100001 #
#1090325
1"
#1090375
b01100011 !
#1090887
0"
#1119200
b01100011 !
#1119225
b01100011 #
#1119775
1"
#1119825
b01101011 !
#1120475
0"
#1148662
b01101011 !
#1148687
b01101011 #
#1149237
1"
#1149287
b00001101 !
#1149412
0"
#1178112
b00001101 !
#1178137
b00001101 #
#1178675
1"
#1178725
b00001010 !
#1207562
b00001010 !
#1207587
b00001010 #
#1210500
b01010010 !
#1211762
0"
#1239137
1"
#1239187
b01100101 !
#1240450
0"
#1267825
1"
#1267875
b01100011 !
#1269137
0"
#1296512
1"
#1296562
b01100101 !
#1297825
0"
#1325200
1"
#1325250
b01101001 !
#1326512
0"
#1353887
1"
#1353937
b01110110 !
#1355200
0"
#1382575
1"
#1382625
b01100101 !
#1383887
0"
#1411262
1"
#1411312
b01100100 !
#1412575
0"
#1439950
1"
#1440000
b00111010 !
#1441262
0"
#1468637
1"
#1468687
b00100000 !
#1474887
0"
#1497325
1"
#1497375
b01001000 !
#1498612
0"
#1525987
1"
#1526037
b01100101 !
#1527275
0"
#1554650
1"
#1554700
b01111001 !
#1555937
0"
#1583312
1"
#1583362
b00100000 !
#1584600
0"
#1611975
1"
#1612025
b01110100 !
#1613262
0"
#1640637
1"
#1640687
b01101000 !
#1641925
0"
#1669300
1"
#1669350
b01100101 !
#1670587
0"
#1697962
1"
#1698012
b01110010 !
#1699250
0"
#1726625
1"
#1726675
b01100101 !
#1727912
0"
#1755287
1"
#1755337
b00101100 !
#1756575
0"
#1783950
1"
#1784000
b00100000 !
#1785237
0"
#1812612
1"
#1812662
b01110100 !
#1813900
0"
#1841275
1"
#1841325
b01101000 !
#1842562
0"
#1869937
1"
#1869987
b01101001 !
#1871225
0"
#1898600
1"
#1898650
b01110011 !
#1899887
0"
#1927262
1"
#1927312
b00100000 !
#1928550
0"
#1955925
1"
#1955975
b01110011 !
#1957212
0"
#1984587
1"
#1984637
b01101000 !
#1985875
0"
#2013250
1"
#2013300
b01101111 !
#2014537
0"
#2041912
1"
#2041962
b01110101 !
#2043200
0"
#2070575
1"
#2070625
b01101100 !
#2071862
0"
#2099237
1"
#2099287
b01100100 !
#2100525
0"
#2127900
1"
#2127950
b00100000 !
#2129187
0"
#2156562
1"
#2156612
b01100010 !
#2157850
0"
#2185225
1"
#2185275
b01100101 !
#2186512
0"
#2213887
1"
#2213937
b00100000 !
#2215175
0"
#2242550
1"
#2242600
b01110010 !
#2243837
0"
#2271212
1"
#2271262
b01100101 !
#2272500
0"
#2299875
1"
#2299925
b01100011 !
#2301162
0"
#2328537
1"
#2328587
b01100101 !
#2329825
0"
#2357200
1"
#2357250
b01101001 !
#2358487
0"
#2385862
1"
#2385912
b01110110 !
#2387150
0"
#2414525
1"
#2414575
b01100101 !
#2415812
0"
#2443187
1"
#2443237
b01100100 !
#2444475
0"
#2471850
1"
#2471900
b00100000 !
#2473137
0"
#2500512
1"
#2500562
b01100010 !
#2501800
0"
#2529175
1"
#2529225
b01100001 !
#2530462
0"
#2557837
1"
#2557887
b01100011 !
#2559125
0"
#2586500
1"
#2586550
b01101011 !
#2587787
0"
#2615162
1"
#2615212
b00001101 !
#2616562
0"
#2643812
1"
#2643862
b00001101 !
#2643987
0"
#2672487
1"
#2672537
b00001010 !
