Code/gtkwave_trace.vcd
$timescale 10ns $end
$scope module logic $end
$var wire 8 ! UCSR0A $end
$var wire 8 " UCSR0B $end
$var wire 8 # UCSR0C $end
$var wire 8 $ UBRR0H $end
$var wire 8 % UBRR0L $end
$var wire 1 & UDRE0 $end
$var wire 8 ' UDR0 $end
$var wire 8 ( PORTE $end
$var wire 1 ) PE1 $end
$upscope $end
$enddefinitions $end
$dumpvars
bxxxxxxxx !
bxxxxxxxx "
bxxxxxxxx #
bxxxxxxxx $
bxxxxxxxx %
x&
bxxxxxxxx '
bxxxxxxxx (
x)
$end
#2087
b00000000 !
0&
#2112
b00000000 $
#2150
b00110011 %
#2187
b00011000 "
#2225
b00000110 #
#2450
b00100000 !
1&
#2500
b11111111 '
#2750
b00000000 !
0&
#2812
b00000000 !
#2875
b00000000 !
#2937
b00000000 !
#3000
b00000000 !
#3062
b00000000 !
#3125
b00000000 !
#3187
b00000000 !
#3250
b00000000 !
#3312
b00000000 !
#3375
b00000000 !
#3437
b00000000 !
#3500
b00000000 !
#3562
b00000000 !
#3625
b00000000 !
#3687
b00000000 !
#3750
b00000000 !
#3812
b00000000 !
#3875
b00000000 !
#3937
b00000000 !
#4000
b00000000 !
#4062
b00000000 !
#4125
b00000000 !
#4187
b00000000 !
#4250
b00000000 !
#4312
b00000000 !
#4375
b00000000 !
#4437
b00000000 !
#4500
b00000000 !
#4562
b00000000 !
#4625
b00000000 !
#4687
b00000000 !
#4750
b00000000 !
#4812
b00000000 !
#4875
b00000000 !
#4937
b00000000 !
#5000
b00000000 !
#5062
b00000000 !
#5125
b00000000 !
#5187
b00000000 !
#5250
b00000000 !
#5312
b00000000 !
#5375
b00000000 !
#5437
b00000000 !
#5500
b00000000 !
#5562
b00000000 !
#5625
b00000000 !
#5687
b00000000 !
#5750
b00000000 !
#5812
b00000000 !
#5875
b00000000 !
#5937
b00000000 !
#6000
b00000000 !
#6062
b00000000 !
#6125
b00000000 !
#6187
b00000000 !
#6250
b00000000 !
#6312
b00000000 !
#6375
b00000000 !
#6437
b00000000 !
#6500
b00000000 !
#6562
b00000000 !
#6625
b00000000 !
#6687
b00000000 !
#6750
b00000000 !
#6812
b00000000 !
#6875
b00000000 !
#6937
b00000000 !
#7000
b00000000 !
#7062
b00000000 !
#7125
b00000000 !
#7187
b00000000 !
#7250
b00000000 !
#7312
b00000000 !
#7375
b00000000 !
#7437
b00000000 !
#7500
b00000000 !
#7562
b00000000 !
#7625
b00000000 !
#7687
b00000000 !
#7750
b00000000 !
#7812
b00000000 !
#7875
b00000000 !
#7937
b00000000 !
#8000
b00000000 !
#8062
b00000000 !
#8125
b00000000 !
#8187
b00000000 !
#8250
b00000000 !
#8312
b00000000 !
#8375
b00000000 !
#8437
b00000000 !
#8500
b00000000 !
#8562
b00000000 !
#8625
b00000000 !
#8687
b00000000 !
#8750
b00000000 !
#8812
b00000000 !
#8875
b00000000 !
#8937
b00000000 !
#9000
b00000000 !
#9062
b00000000 !
#9125
b00000000 !
#9187
b00000000 !
#9250
b00000000 !
#9312
b00000000 !
#9375
b00000000 !
#9437
b00000000 !
#9500
b00000000 !
#9562
b00000000 !
#9625
b00000000 !
#9687
b00000000 !
#9750
b00000000 !
#9812
b00000000 !
#9875
b00000000 !
#9937
b00000000 !
#10000
b00000000 !
#10062
b00000000 !
#10125
b00000000 !
#10187
b00000000 !
#10250
b00000000 !
#10312
b00000000 !
#10375
b00000000 !
#10437
b00000000 !
#10500
b00000000 !
#10562
b00000000 !
#10625
b00000000 !
#10687
b00000000 !
#10750
b00000000 !
#10812
b00000000 !
#10875
b00000000 !
#10937
b00000000 !
#11000
b00000000 !
#11062
b00000000 !
#11125
b00000000 !
#11187
b00000000 !
#11250
b00000000 !
#11312
b00000000 !
#11375
b00000000 !
#11437
b00000000 !
#11500
b00000000 !
#11562
b00000000 !
#11625
b00000000 !
#11687
b00000000 !
#11750
b00000000 !
#11812
b00000000 !
#11875
b00000000 !
#11937
b00000000 !
#12000
b00000000 !
#12062
b00000000 !
#12125
b00000000 !
#12187
b00000000 !
#12250
b00000000 !
#12312
b00000000 !
#12375
b00000000 !
#12437
b00000000 !
#12500
b00000000 !
#12562
b00000000 !
#12625
b00000000 !
#12687
b00000000 !
#12750
b00000000 !
#12812
b00000000 !
#12875
b00000000 !
#12937
b00000000 !
#13000
b00000000 !
#13062
b00000000 !
#13125
b00000000 !
#13187
b00000000 !
#13250
b00000000 !
#13312
b00000000 !
#13375
b00000000 !
#13437
b00000000 !
#13500
b00000000 !
#13562
b00000000 !
#13625
b00000000 !
#13687
b00000000 !
#13750
b00000000 !
#13812
b00000000 !
#13875
b00000000 !
#13937
b00000000 !
#14000
b00000000 !
#14062
b00000000 !
#14125
b00000000 !
#14187
b00000000 !
#14250
b00000000 !
#14312
b00000000 !
#14375
b00000000 !
#14437
b00000000 !
#14500
b00000000 !
#14562
b00000000 !
#14625
b00000000 !
#14687
b00000000 !
#14750
b00000000 !
#14812
b00000000 !
#14875
b00000000 !
#14937
b00000000 !
#15000
b00000000 !
#15062
b00000000 !
#15125
b00000000 !
#15187
b00000000 !
#15250
b00000000 !
#15312
b00000000 !
#15375
b00000000 !
#15437
b00000000 !
#15500
b00000000 !
#15562
b00000000 !
#15625
b00000000 !
#15687
b00000000 !
#15750
b00000000 !
#15812
b00000000 !
#15875
b00000000 !
#15937
b00000000 !
#16000
b00000000 !
#16062
b00000000 !
#16125
b00000000 !
#16187
b00000000 !
#16250
b00000000 !
#16312
b00000000 !
#16375
b00000000 !
#16437
b00000000 !
#16500
b00000000 !
#16562
b00000000 !
#16625
b00000000 !
#16687
b00000000 !
#16750
b00000000 !
#16812
b00000000 !
#16875
b00000000 !
#16937
b00000000 !
#17000
b00000000 !
#17062
b00000000 !
#17125
b00000000 !
#17187
b00000000 !
#17250
b00000000 !
#17312
b00000000 !
#17375
b00000000 !
#17437
b00000000 !
#17500
b00000000 !
#17562
b00000000 !
#17625
b00000000 !
#17687
b00000000 !
#17750
b00000000 !
#17812
b00000000 !
#17875
b00000000 !
#17937
b00000000 !
#18000
b00000000 !
#18062
b00000000 !
#18125
b00000000 !
#18187
b00000000 !
#18250
b00000000 !
#18312
b00000000 !
#18375
b00000000 !
#18437
b00000000 !
#18500
b00000000 !
#18562
b00000000 !
#18625
b00000000 !
#18687
b00000000 !
#18750
b00000000 !
#18812
b00000000 !
#18875
b00000000 !
#18937
b00000000 !
#19000
b00000000 !
#19062
b00000000 !
#19125
b00000000 !
#19187
b00000000 !
#19250
b00000000 !
#19312
b00000000 !
#19375
b00000000 !
#19437
b00000000 !
#19500
b00000000 !
#19562
b00000000 !
#19625
b00000000 !
#19687
b00000000 !
#19750
b00000000 !
#19812
b00000000 !
#19875
b00000000 !
#19937
b00000000 !
#20000
b00000000 !
#20062
b00000000 !
#20125
b00000000 !
#20187
b00000000 !
#20250
b00000000 !
#20312
b00000000 !
#20375
b00000000 !
#20437
b00000000 !
#20500
b00000000 !
#20562
b00000000 !
#20625
b00000000 !
#20687
b00000000 !
#20750
b00000000 !
#20812
b00000000 !
#20875
b00000000 !
#20937
b00000000 !
#21000
b00000000 !
#21062
b00000000 !
#21125
b00000000 !
#21187
b00000000 !
#21250
b00000000 !
#21312
b00000000 !
#21375
b00000000 !
#21437
b00000000 !
#21500
b00000000 !
#21562
b00000000 !
#21625
b00000000 !
#21687
b00000000 !
#21750
b00000000 !
#21812
b00000000 !
#21875
b00000000 !
#21937
b00000000 !
#22000
b00000000 !
#22062
b00000000 !
#22125
b00000000 !
#22187
b00000000 !
#22250
b00000000 !
#22312
b00000000 !
#22375
b00000000 !
#22437
b00000000 !
#22500
b00000000 !
#22562
b00000000 !
#22625
b00000000 !
#22687
b00000000 !
#22750
b00000000 !
#22812
b00000000 !
#22875
b00000000 !
#22937
b00000000 !
#23000
b00000000 !
#23062
b00000000 !
#23125
b00000000 !
#23187
b00000000 !
#23250
b00000000 !
#23312
b00000000 !
#23375
b00000000 !
#23437
b00000000 !
#23500
b00000000 !
#23562
b00000000 !
#23625
b00000000 !
#23687
b00000000 !
#23750
b00000000 !
#23812
b00000000 !
#23875
b00000000 !
#23937
b00000000 !
#24000
b00000000 !
#24062
b00000000 !
#24125
b00000000 !
#24187
b00000000 !
#24250
b00000000 !
#24312
b00000000 !
#24375
b00000000 !
#24437
b00000000 !
#24500
b00000000 !
#24562
b00000000 !
#24625
b00000000 !
#24687
b00000000 !
#24750
b00000000 !
#24812
b00000000 !
#24875
b00000000 !
#24937
b00000000 !
#25000
b00000000 !
#25062
b00000000 !
#25125
b00000000 !
#25187
b00000000 !
#25250
b00000000 !
#25312
b00000000 !
#25375
b00000000 !
#25437
b00000000 !
#25500
b00000000 !
#25562
b00000000 !
#25625
b00000000 !
#25687
b00000000 !
#25750
b00000000 !
#25812
b00000000 !
#25875
b00000000 !
#25937
b00000000 !
#26000
b00000000 !
#26062
b00000000 !
#26125
b00000000 !
#26187
b00000000 !
#26250
b00000000 !
#26312
b00000000 !
#26375
b00000000 !
#26437
b00000000 !
#26500
b00000000 !
#26562
b00000000 !
#26625
b00000000 !
#26687
b00000000 !
#26750
b00000000 !
#26812
b00000000 !
#26875
b00000000 !
#26937
b00000000 !
#27000
b00000000 !
#27062
b00000000 !
#27125
b00000000 !
#27187
b00000000 !
#27250
b00000000 !
#27312
b00000000 !
#27375
b00000000 !
#27437
b00000000 !
#27500
b00000000 !
#27562
b00000000 !
#27625
b00000000 !
#27687
b00000000 !
#27750
b00000000 !
#27812
b00000000 !
#27875
b00000000 !
#27937
b00000000 !
#28000
b00000000 !
#28062
b00000000 !
#28125
b00000000 !
#28187
b00000000 !
#28250
b00000000 !
#28312
b00000000 !
#28375
b00000000 !
#28437
b00000000 !
#28500
b00000000 !
#28562
b00000000 !
#28625
b00000000 !
#28687
b00000000 !
#28750
b00000000 !
#28812
b00000000 !
#28875
b00000000 !
#28937
b00000000 !
#29000
b00000000 !
#29062
b00000000 !
#29125
b00000000 !
#29187
b00000000 !
#29250
b00000000 !
#29312
b00000000 !
#29375
b00000000 !
#29437
b00000000 !
#29500
b00000000 !
#29562
b00000000 !
#29625
b00000000 !
#29687
b00000000 !
#29750
b00000000 !
#29812
b00000000 !
#29875
b00000000 !
#29937
b00000000 !
#30000
b00000000 !
#30062
b00000000 !
#30125
b00000000 !
#30187
b00000000 !
#30250
b00000000 !
#30312
b00000000 !
#30375
b00000000 !
#30437
b00000000 !
#30500
b00000000 !
#30562
b00000000 !
#30625
b00000000 !
#30687
b00000000 !
#30750
b00000000 !
#30812
b00000000 !
#30875
b00000000 !
#30937
b00000000 !
#31000
b00000000 !
#31062
b00000000 !
#31125
b00000000 !
#31187
b00000000 !
#31250
b00000000 !
#31312
b00000000 !
#31375
b00000000 !
#31437
b00000000 !
#31500
b00000000 !
#31562
b00000000 !
#31625
b00000000 !
#31687
b00000000 !
#31750
b00000000 !
#31812
b00000000 !
#31875
b00000000 !
#31937
b00000000 !
#32000
b00000000 !
#32062
b00000000 !
#32125
b00000000 !
#32187
b00000000 !
#32250
b00000000 !
#32312
b00000000 !
#32375
b00000000 !
#32437
b00000000 !
#32500
b00000000 !
#32562
b00000000 !
#32625
b00000000 !
#32687
b00000000 !
#32750
b00000000 !
#32812
b00000000 !
#32875
b00000000 !
#32937
b00000000 !
#33000
b00000000 !
#33062
b00000000 !
#33125
b00000000 !
#33187
b00000000 !
#33250
b00000000 !
#33312
b00000000 !
#33375
b00000000 !
#33437
b00000000 !
#33500
b00000000 !
#33562
b00000000 !
#33625
b00000000 !
#33687
b00000000 !
#33750
b00000000 !
#33812
b00000000 !
#33875
b00000000 !
#33937
b00000000 !
#34000
b00000000 !
#34062
b00000000 !
#34125
b00000000 !
#34187
b00000000 !
#34250
b00000000 !
#34312
b00000000 !
#34375
b00000000 !
#34437
b00000000 !
#34500
b00000000 !
#34562
b00000000 !
#34625
b00000000 !
#34687
b00000000 !
#34750
b00000000 !
#34812
b00000000 !
#34875
b00000000 !
#34937
b00000000 !
#35000
b00000000 !
#35062
b00000000 !
#35125
b00000000 !
#35187
b00000000 !
#35250
b00000000 !
#35312
b00000000 !
#35375
b00000000 !
#35437
b00000000 !
#35500
b00000000 !
#35562
b00000000 !
#35625
b00000000 !
#35687
b00000000 !
#35750
b00000000 !
#35812
b00000000 !
#35875
b00000000 !
#35937
b00000000 !
#36000
b00000000 !
#36062
b00000000 !
#36125
b00000000 !
#36187
b00000000 !
#36250
b00000000 !
#36312
b00000000 !
#36375
b00000000 !
#36437
b00000000 !
#36500
b00000000 !
#36562
b00000000 !
#36625
b00000000 !
#36687
b00000000 !
#36750
b00000000 !
#36812
b00000000 !
#36875
b00000000 !
#36937
b00000000 !
#37000
b00000000 !
#37062
b00000000 !
#37125
b00000000 !
#37187
b00000000 !
#37250
b00000000 !
#37312
b00000000 !
#37375
b00000000 !
#37437
b00000000 !
#37500
b00000000 !
#37562
b00000000 !
#37625
b00000000 !
#37687
b00000000 !
#37750
b00000000 !
#37812
b00000000 !
#37875
b00000000 !
#37937
b00000000 !
#38000
b00000000 !
#38062
b00000000 !
#38125
b00000000 !
#38187
b00000000 !
#38250
b00000000 !
#38312
b00000000 !
#38375
b00000000 !
#38437
b00000000 !
#38500
b00000000 !
#38562
b00000000 !
#38625
b00000000 !
#38687
b00000000 !
#38750
b00000000 !
#38812
b00000000 !
#38875
b00000000 !
#38937
b00000000 !
#39000
b00000000 !
#39062
b00000000 !
#39125
b00000000 !
#39187
b00000000 !
#39250
b00000000 !
#39312
b00000000 !
#39375
b00000000 !
#39437
b00000000 !
#39500
b00000000 !
#39562
b00000000 !
#39625
b00000000 !
#39687
b00000000 !
#39750
b00000000 !
#39812
b00000000 !
#39875
b00000000 !
#39937
b00000000 !
#40000
b00000000 !
#40062
b00000000 !
#40125
b00000000 !
#40187
b00000000 !
#40250
b00000000 !
#40312
b00000000 !
#40375
b00000000 !
#40437
b00000000 !
#40500
b00000000 !
#40562
b00000000 !
#40625
b00000000 !
#40687
b00000000 !
#40750
b00000000 !
#40812
b00000000 !
#40875
b00000000 !
#40937
b00000000 !
#41000
b00000000 !
#41062
b00000000 !
#41125
b00000000 !
#41187
b00000000 !
#41250
b00000000 !
#41312
b00000000 !
#41375
b00000000 !
#41437
b00000000 !
#41500
b00000000 !
#41562
b00000000 !
#41625
b00000000 !
#41687
b00000000 !
#41750
b00000000 !
#41812
b00000000 !
#41875
b00000000 !
#41937
b00000000 !
#42000
b00000000 !
#42062
b00000000 !
#42125
b00000000 !
#42187
b00000000 !
#42250
b00000000 !
#42312
b00000000 !
#42375
b00000000 !
#42437
b00000000 !
#42500
b00000000 !
#42562
b00000000 !
#42625
b00000000 !
#42687
b00000000 !
#42750
b00000000 !
#42812
b00000000 !
#42875
b00000000 !
#42937
b00000000 !
#43000
b00000000 !
#43062
b00000000 !
#43125
b00000000 !
#43187
b00000000 !
#43250
b00000000 !
#43312
b00000000 !
#43375
b00000000 !
#43437
b00000000 !
#43500
b00000000 !
#43562
b00000000 !
#43625
b00000000 !
#43687
b00000000 !
#43750
b00000000 !
#43812
b00000000 !
#43875
b00000000 !
#43937
b00000000 !
#44000
b00000000 !
#44062
b00000000 !
#44125
b00000000 !
#44187
b00000000 !
#44250
b00000000 !
#44312
b00000000 !
#44375
b00000000 !
#44437
b00000000 !
#44500
b00000000 !
#44562
b00000000 !
#44625
b00000000 !
#44687
b00000000 !
#44750
b00000000 !
#44812
b00000000 !
#44875
b00000000 !
#44937
b00000000 !
#45000
b00000000 !
#45062
b00000000 !
#45125
b00000000 !
#45187
b00000000 !
#45250
b00000000 !
#45312
b00000000 !
#45375
b00000000 !
#45437
b00000000 !
#45500
b00000000 !
#45562
b00000000 !
#45625
b00000000 !
#45687
b00000000 !
#45750
b00000000 !
#45812
b00000000 !
#45875
b00000000 !
#45937
b00000000 !
#46000
b00000000 !
#46062
b00000000 !
#46125
b00000000 !
#46187
b00000000 !
#46250
b00000000 !
#46312
b00000000 !
#46375
b00000000 !
#46437
b00000000 !
#46500
b00000000 !
#46562
b00000000 !
#46625
b00000000 !
#46687
b00000000 !
#46750
b00000000 !
#46812
b00000000 !
#46875
b00000000 !
#46937
b00000000 !
#47000
b00000000 !
#47062
b00000000 !
#47125
b00000000 !
#47187
b00000000 !
#47250
b00000000 !
#47312
b00000000 !
#47375
b00000000 !
#47437
b00000000 !
#47500
b00000000 !
#47562
b00000000 !
#47625
b00000000 !
#47687
b00000000 !
#47750
b00000000 !
#47812
b00000000 !
#47875
b00000000 !
#47937
b00000000 !
#48000
b00000000 !
#48062
b00000000 !
#48125
b00000000 !
#48187
b00000000 !
#48250
b00000000 !
#48312
b00000000 !
#48375
b00000000 !
#48437
b00000000 !
#48500
b00000000 !
#48562
b00000000 !
#48625
b00000000 !
#48687
b00000000 !
#48750
b00000000 !
#48812
b00000000 !
#48875
b00000000 !
#48937
b00000000 !
#49000
b00000000 !
#49062
b00000000 !
#49125
b00000000 !
#49187
b00000000 !
#49250
b00000000 !
#49312
b00000000 !
#49375
b00000000 !
#49437
b00000000 !
#49500
b00000000 !
#49562
b00000000 !
#49625
b00000000 !
#49687
b00000000 !
#49750
b00000000 !
#49812
b00000000 !
#49875
b00000000 !
#49937
b00000000 !
#50000
b00000000 !
#50062
b00000000 !
#50125
b00000000 !
#50187
b00000000 !
#50250
b00000000 !
#50312
b00000000 !
#50375
b00000000 !
#50437
b00000000 !
#50500
b00000000 !
#50562
b00000000 !
#50625
b00000000 !
#50687
b00000000 !
#50750
b00000000 !
#50812
b00000000 !
#50875
b00000000 !
#50937
b00000000 !
#51000
b00000000 !
#51062
b00000000 !
#51125
b00000000 !
#51187
b00000000 !
#51250
b00000000 !
#51312
b00000000 !
#51375
b00000000 !
#51437
b00000000 !
#51500
b00000000 !
#51562
b00000000 !
#51625
b00000000 !
#51687
b00000000 !
#51750
b00000000 !
#51812
b00000000 !
#51875
b00000000 !
#51937
b00000000 !
#52000
b00000000 !
#52062
b00000000 !
#52125
b00000000 !
#52187
b00000000 !
#52250
b00000000 !
#52312
b00000000 !
#52375
b00000000 !
#52437
b00000000 !
#52500
b00000000 !
#52562
b00000000 !
#52625
b00000000 !
#52687
b00000000 !
#52750
b00000000 !
#52812
b00000000 !
#52875
b00000000 !
#52937
b00000000 !
#53000
b00000000 !
#53062
b00000000 !
#53125
b00000000 !
#53187
b00000000 !
#53250
b00000000 !
#53312
b00000000 !
#53375
b00000000 !
#53437
b00000000 !
#53500
b00000000 !
#53562
b00000000 !
#53625
b00000000 !
#53687
b00000000 !
#53750
b00000000 !
#53812
b00000000 !
#53875
b00000000 !
#53937
b00000000 !
#54000
b00000000 !
#54062
b00000000 !
#54125
b00000000 !
#54187
b00000000 !
#54250
b00000000 !
#54312
b00000000 !
#54375
b00000000 !
#54437
b00000000 !
#54500
b00000000 !
#54562
b00000000 !
#54625
b00000000 !
#54687
b00000000 !
#54750
b00000000 !
#54812
b00000000 !
#54875
b00000000 !
#54937
b00000000 !
#55000
b00000000 !
#55062
b00000000 !
#55125
b00000000 !
#55187
b00000000 !
#55250
b00000000 !
#55312
b00000000 !
#55375
b00000000 !
#55437
b00000000 !
#55500
b00000000 !
#55562
b00000000 !
#55625
b00000000 !
#55687
b00000000 !
#55750
b00000000 !
#55812
b00000000 !
#55875
b00000000 !
#55937
b00000000 !
#56000
b00000000 !
#56062
b00000000 !
#56125
b00000000 !
#56187
b00000000 !
#56250
b00000000 !
#56312
b00000000 !
#56375
b00000000 !
#56437
b00000000 !
#56500
b00000000 !
#56562
b00000000 !
#56625
b00000000 !
#56687
b00000000 !
#56750
b00000000 !
#56812
b00000000 !
#56875
b00000000 !
#56937
b00000000 !
#57000
b00000000 !
#57062
b00000000 !
#57125
b00000000 !
#57187
b00000000 !
#57250
b00000000 !
#57312
b00000000 !
#57375
b00000000 !
#57437
b00000000 !
#57500
b00000000 !
#57562
b00000000 !
#57625
b00000000 !
#57687
b00000000 !
#57750
b00000000 !
#57812
b00000000 !
#57875
b00000000 !
#57937
b00000000 !
#58000
b00000000 !
#58062
b00000000 !
#58125
b00000000 !
#58187
b00000000 !
#58250
b00000000 !
#58312
b00000000 !
#58375
b00000000 !
#58437
b00000000 !
#58500
b00000000 !
#58562
b00000000 !
#58625
b00000000 !
#58687
b00000000 !
#58750
b00000000 !
#58812
b00000000 !
#58875
b00000000 !
#58937
b00000000 !
#59000
b00000000 !
#59062
b00000000 !
#59125
b00000000 !
#59187
b00000000 !
#59250
b00000000 !
#59312
b00000000 !
#59375
b00000000 !
#59437
b00000000 !
#59500
b00000000 !
#59562
b00000000 !
#59625
b00000000 !
#59687
b00000000 !
#59750
b00000000 !
#59812
b00000000 !
#59875
b00000000 !
#59937
b00000000 !
#60000
b00000000 !
#60062
b00000000 !
#60125
b00000000 !
#60187
b00000000 !
#60250
b00000000 !
#60312
b00000000 !
#60375
b00000000 !
#60437
b00000000 !
#60500
b00000000 !
#60562
b00000000 !
#60625
b00000000 !
#60687
b00000000 !
#60750
b00000000 !
#60812
b00000000 !
#60875
b00000000 !
#60937
b00000000 !
#61000
b00000000 !
#61062
b00000000 !
#61125
b00000000 !
#61187
b00000000 !
#61250
b00000000 !
#61312
b00000000 !
#61375
b00000000 !
#61437
b00000000 !
#61500
b00000000 !
#61562
b00000000 !
#61625
b00000000 !
#61687
b00000000 !
#61750
b00000000 !
#61812
b00000000 !
#61875
b00000000 !
#61937
b00000000 !
#62000
b00000000 !
#62062
b00000000 !
#62125
b00000000 !
#62187
b00000000 !
#62250
b00000000 !
#62312
b00000000 !
#62375
b00000000 !
#62437
b00000000 !
#62500
b00000000 !
#62562
b00000000 !
#62625
b00000000 !
#62687
b00000000 !
#62750
b00000000 !
#62812
b00000000 !
#62875
b00000000 !
#62937
b00000000 !
#63000
b00000000 !
#63062
b00000000 !
#63125
b00000000 !
#63187
b00000000 !
#63250
b00000000 !
#63312
b00000000 !
#63375
b00000000 !
#63437
b00000000 !
#63500
b00000000 !
#63562
b00000000 !
#63625
b00000000 !
#63687
b00000000 !
#63750
b00000000 !
#63812
b00000000 !
#63875
b00000000 !
#63937
b00000000 !
#64000
b00000000 !
#64062
b00000000 !
#64125
b00000000 !
#64187
b00000000 !
#64250
b00000000 !
#64312
b00000000 !
#64375
b00000000 !
#64437
b00000000 !
#64500
b00000000 !
#64562
b00000000 !
#64625
b00000000 !
#64687
b00000000 !
#64750
b00000000 !
#64812
b00000000 !
#64875
b00000000 !
#64937
b00000000 !
#65000
b00000000 !
#65062
b00000000 !
#65125
b00000000 !
#65187
b00000000 !
#65250
b00000000 !
#65312
b00000000 !
#65375
b00000000 !
#65437
b00000000 !
#65500
b00000000 !
#65562
b00000000 !
#65625
b00000000 !
#65687
b00000000 !
#65750
b00000000 !
#65812
b00000000 !
#65875
b00000000 !
#65937
b00000000 !
#66000
b00000000 !
#66062
b00000000 !
#66125
b00000000 !
#66187
b00000000 !
#66250
b00000000 !
#66312
b00000000 !
#66375
b00000000 !
#66437
b00000000 !
#66500
b00000000 !
#66562
b00000000 !
#66625
b00000000 !
#66687
b00000000 !
#66750
b00000000 !
#66812
b00000000 !
#66875
b00000000 !
#66937
b00000000 !
#67000
b00000000 !
#67062
b00000000 !
#67125
b00000000 !
#67187
b00000000 !
#67250
b00000000 !
#67312
b00000000 !
#67375
b00000000 !
#67437
b00000000 !
#67500
b00000000 !
#67562
b00000000 !
#67625
b00000000 !
#67687
b00000000 !
#67750
b00000000 !
#67812
b00000000 !
#67875
b00000000 !
#67937
b00000000 !
#68000
b00000000 !
#68062
b00000000 !
#68125
b00000000 !
#68187
b00000000 !
#68250
b00000000 !
#68312
b00000000 !
#68375
b00000000 !
#68437
b00000000 !
#68500
b00000000 !
#68562
b00000000 !
#68625
b00000000 !
#68687
b00000000 !
#68750
b00000000 !
#68812
b00000000 !
#68875
b00000000 !
#68937
b00000000 !
#69000
b00000000 !
#69062
b00000000 !
#69125
b00000000 !
#69187
b00000000 !
#69250
b00000000 !
#69312
b00000000 !
#69375
b00000000 !
#69437
b00000000 !
#69500
b00000000 !
#69562
b00000000 !
#69625
b00000000 !
#69687
b00000000 !
#69750
b00000000 !
#69812
b00000000 !
#69875
b00000000 !
#69937
b00000000 !
#70000
b00000000 !
#70062
b00000000 !
#70125
b00000000 !
#70187
b00000000 !
#70250
b00000000 !
#70312
b00000000 !
#70375
b00000000 !
#70437
b00000000 !
#70500
b00000000 !
#70562
b00000000 !
#70625
b00000000 !
#70687
b00000000 !
#70750
b00000000 !
#70812
b00000000 !
#70875
b00000000 !
#70937
b00000000 !
#71000
b00000000 !
#71062
b00000000 !
#71125
b00000000 !
#71187
b00000000 !
#71250
b00000000 !
#71312
b00000000 !
#71375
b00000000 !
#71437
b00000000 !
#71500
b00000000 !
#71562
b00000000 !
#71625
b00000000 !
#71687
b00000000 !
#71750
b00000000 !
#71812
b00000000 !
#71875
b00000000 !
#71937
b00000000 !
#72000
b00000000 !
#72062
b00000000 !
#72125
b00000000 !
#72187
b00000000 !
#72250
b00000000 !
#72312
b00000000 !
#72375
b00000000 !
#72437
b00000000 !
#72500
b00000000 !
#72562
b00000000 !
#72625
b00000000 !
#72687
b00000000 !
#72750
b00000000 !
#72812
b00000000 !
#72875
b00000000 !
#72937
b00000000 !
#73000
b00000000 !
#73062
b00000000 !
#73125
b00000000 !
#73187
b00000000 !
#73250
b00000000 !
#73312
b00000000 !
#73375
b00000000 !
#73437
b00000000 !
#73500
b00000000 !
#73562
b00000000 !
#73625
b00000000 !
#73687
b00000000 !
#73750
b00000000 !
#73812
b00000000 !
#73875
b00000000 !
#73937
b00000000 !
#74000
b00000000 !
#74062
b00000000 !
#74125
b00000000 !
#74187
b00000000 !
#74250
b00000000 !
#74312
b00000000 !
#74375
b00000000 !
#74437
b00000000 !
#74500
b00000000 !
#74562
b00000000 !
#74625
b00000000 !
#74687
b00000000 !
#74750
b00000000 !
#74812
b00000000 !
#74875
b00000000 !
#74937
b00000000 !
#75000
b00000000 !
#75062
b00000000 !
#75125
b00000000 !
#75187
b00000000 !
#75250
b00000000 !
#75312
b00000000 !
#75375
b00000000 !
#75437
b00000000 !
#75500
b00000000 !
#75562
b00000000 !
#75625
b00000000 !
#75687
b00000000 !
#75750
b00000000 !
#75812
b00000000 !
#75875
b00000000 !
#75937
b00000000 !
#76000
b00000000 !
#76062
b00000000 !
#76125
b00000000 !
#76187
b00000000 !
#76250
b00000000 !
#76312
b00000000 !
#76375
b00000000 !
#76437
b00000000 !
#76500
b00000000 !
#76562
b00000000 !
#76625
b00000000 !
#76687
b00000000 !
#76750
b00000000 !
#76812
b00000000 !
#76875
b00000000 !
#76937
b00000000 !
#77000
b00000000 !
#77062
b00000000 !
#77125
b00000000 !
#77187
b00000000 !
#77250
b00000000 !
#77312
b00000000 !
#77375
b00000000 !
#77437
b00000000 !
#77500
b00000000 !
#77562
b00000000 !
#77625
b00000000 !
#77687
b00000000 !
#77750
b00000000 !
#77812
b00000000 !
#77875
b00000000 !
#77937
b00000000 !
#78000
b00000000 !
#78062
b00000000 !
#78125
b00000000 !
#78187
b00000000 !
#78250
b00000000 !
#78312
b00000000 !
#78375
b00000000 !
#78437
b00000000 !
#78500
b00000000 !
#78562
b00000000 !
#78625
b00000000 !
#78687
b00000000 !
#78750
b00000000 !
#78812
b00000000 !
#78875
b00000000 !
#78937
b00000000 !
#79000
b00000000 !
#79062
b00000000 !
#79125
b00000000 !
#79187
b00000000 !
#79250
b00000000 !
#79312
b00000000 !
#79375
b00000000 !
#79437
b00000000 !
#79500
b00000000 !
#79562
b00000000 !
#79625
b00000000 !
#79687
b00000000 !
#79750
b00000000 !
#79812
b00000000 !
#79875
b00000000 !
#79937
b00000000 !
#80000
b00000000 !
#80062
b00000000 !
#80125
b00000000 !
#80187
b00000000 !
#80250
b00000000 !
#80312
b00000000 !
#80375
b00000000 !
#80437
b00000000 !
#80500
b00000000 !
#80562
b00000000 !
#80625
b00000000 !
#80687
b00000000 !
#80750
b00000000 !
#80812
b00000000 !
#80875
b00000000 !
#80937
b00000000 !
#81000
b00000000 !
#81062
b00000000 !
#81125
b00000000 !
#81187
b00000000 !
#81250
b00000000 !
#81312
b00000000 !
#81375
b00000000 !
#81437
b00000000 !
#81500
b00000000 !
#81562
b00000000 !
#81625
b00000000 !
#81687
b00000000 !
#81750
b00000000 !
#81812
b00000000 !
#81875
b00000000 !
#81937
b00000000 !
#82000
b00000000 !
#82062
b00000000 !
#82125
b00000000 !
#82187
b00000000 !
#82250
b00000000 !
#82312
b00000000 !
#82375
b00000000 !
#82437
b00000000 !
#82500
b00000000 !
#82562
b00000000 !
#82625
b00000000 !
#82687
b00000000 !
#82750
b00000000 !
#82812
b00000000 !
#82875
b00000000 !
#82937
b00000000 !
#83000
b00000000 !
#83062
b00000000 !
#83125
b00000000 !
#83187
b00000000 !
#83250
b00000000 !
#83312
b00000000 !
#83375
b00000000 !
#83437
b00000000 !
#83500
b00000000 !
#83562
b00000000 !
#83625
b00000000 !
#83687
b00000000 !
#83750
b00000000 !
#83812
b00000000 !
#83875
b00000000 !
#83937
b00000000 !
#84000
b00000000 !
#84062
b00000000 !
#84125
b00000000 !
#84187
b00000000 !
#84250
b00000000 !
#84312
b00000000 !
#84375
b00000000 !
#84437
b00000000 !
#84500
b00000000 !
#84562
b00000000 !
#84625
b00000000 !
#84687
b00000000 !
#84750
b00000000 !
#84812
b00000000 !
#84875
b00000000 !
#84937
b00000000 !
#85000
b00000000 !
#85062
b00000000 !
#85125
b00000000 !
#85187
b00000000 !
#85250
b00000000 !
#85312
b00000000 !
#85375
b00000000 !
#85437
b00000000 !
#85500
b00000000 !
#85562
b00000000 !
#85625
b00000000 !
#85687
b00000000 !
