Code/gtkwave_trace.vcd
$timescale 10ns $end
$scope module logic $end
$var wire 8 ! UCSR0A $end
$var wire 8 " UCSR0B $end
$var wire 8 # UCSR0C $end
$var wire 8 $ UBRR0H $end
$var wire 8 % UBRR0L $end
$var wire 1 & UDRE0 $end
$var wire 8 ' UDR0 $end
$var wire 8 ( PORTE $end
$var wire 1 ) PE1 $end
$upscope $end
$enddefinitions $end
$dumpvars
bxxxxxxxx !
bxxxxxxxx "
bxxxxxxxx #
bxxxxxxxx $
bxxxxxxxx %
x&
bxxxxxxxx '
bxxxxxxxx (
x)
$end
#337
b00000000 !
0&
#362
b00000000 $
#400
b00110011 %
#437
b00011000 "
#475
b00000110 #
#675
b00100000 !
1&
#725
b00000000 '
#950
b00000000 !
0&
#1012
b00000000 !
#1075
b00000000 !
#1137
b00000000 !
#1200
b00000000 !
#1262
b00000000 !
#1325
b00000000 !
#1387
b00000000 !
#1450
b00000000 !
#1512
b00000000 !
#1575
b00000000 !
#1637
b00000000 !
#1700
b00000000 !
#1762
b00000000 !
#1825
b00000000 !
#1887
b00000000 !
#1950
b00000000 !
#2012
b00000000 !
#2075
b00000000 !
#2137
b00000000 !
#2200
b00000000 !
#2262
b00000000 !
#2325
b00000000 !
#2387
b00000000 !
#2450
b00000000 !
#2512
b00000000 !
#2575
b00000000 !
#2637
b00000000 !
#2700
b00000000 !
#2762
b00000000 !
#2825
b00000000 !
#2887
b00000000 !
#2950
b00000000 !
#3012
b00000000 !
#3075
b00000000 !
#3137
b00000000 !
#3200
b00000000 !
#3262
b00000000 !
#3325
b00000000 !
#3387
b00000000 !
#3450
b00000000 !
#3512
b00000000 !
#3575
b00000000 !
#3637
b00000000 !
#3700
b00000000 !
#3762
b00000000 !
#3825
b00000000 !
#3887
b00000000 !
#3950
b00000000 !
#4012
b00000000 !
#4075
b00000000 !
#4137
b00000000 !
#4200
b00000000 !
#4262
b00000000 !
#4325
b00000000 !
#4387
b00000000 !
#4450
b00000000 !
#4512
b00000000 !
#4575
b00000000 !
#4637
b00000000 !
#4700
b00000000 !
#4762
b00000000 !
#4825
b00000000 !
#4887
b00000000 !
#4950
b00000000 !
#5012
b00000000 !
#5075
b00000000 !
#5137
b00000000 !
#5200
b00000000 !
#5262
b00000000 !
#5325
b00000000 !
#5387
b00000000 !
#5450
b00000000 !
#5512
b00000000 !
#5575
b00000000 !
#5637
b00000000 !
#5700
b00000000 !
#5762
b00000000 !
#5825
b00000000 !
#5887
b00000000 !
#5950
b00000000 !
#6012
b00000000 !
#6075
b00000000 !
#6137
b00000000 !
#6200
b00000000 !
#6262
b00000000 !
#6325
b00000000 !
#6387
b00000000 !
#6450
b00000000 !
#6512
b00000000 !
#6575
b00000000 !
#6637
b00000000 !
#6700
b00000000 !
#6762
b00000000 !
#6825
b00000000 !
#6887
b00000000 !
#6950
b00000000 !
#7012
b00000000 !
#7075
b00000000 !
#7137
b00000000 !
#7200
b00000000 !
#7262
b00000000 !
#7325
b00000000 !
#7387
b00000000 !
#7450
b00000000 !
#7512
b00000000 !
#7575
b00000000 !
#7637
b00000000 !
#7700
b00000000 !
#7762
b00000000 !
#7825
b00000000 !
#7887
b00000000 !
#7950
b00000000 !
#8012
b00000000 !
#8075
b00000000 !
#8137
b00000000 !
#8200
b00000000 !
#8262
b00000000 !
#8325
b00000000 !
#8387
b00000000 !
#8450
b00000000 !
#8512
b00000000 !
#8575
b00000000 !
#8637
b00000000 !
#8700
b00000000 !
#8762
b00000000 !
#8825
b00000000 !
#8887
b00000000 !
#8950
b00000000 !
#9012
b00000000 !
#9075
b00000000 !
#9137
b00000000 !
#9200
b00000000 !
#9262
b00000000 !
#9325
b00000000 !
#9387
b00000000 !
#9450
b00000000 !
#9512
b00000000 !
#9575
b00000000 !
#9637
b00000000 !
#9700
b00000000 !
#9762
b00000000 !
#9825
b00000000 !
#9887
b00000000 !
#9950
b00000000 !
#10012
b00000000 !
#10075
b00000000 !
#10137
b00000000 !
#10200
b00000000 !
#10262
b00000000 !
#10325
b00000000 !
#10387
b00000000 !
#10450
b00000000 !
#10512
b00000000 !
#10575
b00000000 !
#10637
b00000000 !
#10700
b00000000 !
#10762
b00000000 !
#10825
b00000000 !
#10887
b00000000 !
#10950
b00000000 !
#11012
b00000000 !
#11075
b00000000 !
#11137
b00000000 !
#11200
b00000000 !
#11262
b00000000 !
#11325
b00000000 !
#11387
b00000000 !
#11450
b00000000 !
#11512
b00000000 !
#11575
b00000000 !
#11637
b00000000 !
#11700
b00000000 !
#11762
b00000000 !
#11825
b00000000 !
#11887
b00000000 !
#11950
b00000000 !
#12012
b00000000 !
#12075
b00000000 !
#12137
b00000000 !
#12200
b00000000 !
#12262
b00000000 !
#12325
b00000000 !
#12387
b00000000 !
#12450
b00000000 !
#12512
b00000000 !
#12575
b00000000 !
#12637
b00000000 !
#12700
b00000000 !
#12762
b00000000 !
#12825
b00000000 !
#12887
b00000000 !
#12950
b00000000 !
#13012
b00000000 !
#13075
b00000000 !
#13137
b00000000 !
#13200
b00000000 !
#13262
b00000000 !
#13325
b00000000 !
#13387
b00000000 !
#13450
b00000000 !
#13512
b00000000 !
#13575
b00000000 !
#13637
b00000000 !
#13700
b00000000 !
#13762
b00000000 !
#13825
b00000000 !
#13887
b00000000 !
#13950
b00000000 !
#14012
b00000000 !
#14075
b00000000 !
#14137
b00000000 !
#14200
b00000000 !
#14262
b00000000 !
#14325
b00000000 !
#14387
b00000000 !
#14450
b00000000 !
#14512
b00000000 !
#14575
b00000000 !
#14637
b00000000 !
#14700
b00000000 !
#14762
b00000000 !
#14825
b00000000 !
#14887
b00000000 !
#14950
b00000000 !
#15012
b00000000 !
#15075
b00000000 !
#15137
b00000000 !
#15200
b00000000 !
#15262
b00000000 !
#15325
b00000000 !
#15387
b00000000 !
#15450
b00000000 !
#15512
b00000000 !
#15575
b00000000 !
#15637
b00000000 !
#15700
b00000000 !
#15762
b00000000 !
#15825
b00000000 !
#15887
b00000000 !
#15950
b00000000 !
#16012
b00000000 !
#16075
b00000000 !
#16137
b00000000 !
#16200
b00000000 !
#16262
b00000000 !
#16325
b00000000 !
#16387
b00000000 !
#16450
b00000000 !
#16512
b00000000 !
#16575
b00000000 !
#16637
b00000000 !
#16700
b00000000 !
#16762
b00000000 !
#16825
b00000000 !
#16887
b00000000 !
#16950
b00000000 !
#17012
b00000000 !
#17075
b00000000 !
#17137
b00000000 !
#17200
b00000000 !
#17262
b00000000 !
#17325
b00000000 !
#17387
b00000000 !
#17450
b00000000 !
#17512
b00000000 !
#17575
b00000000 !
#17637
b00000000 !
#17700
b00000000 !
#17762
b00000000 !
#17825
b00000000 !
#17887
b00000000 !
#17950
b00000000 !
#18012
b00000000 !
#18075
b00000000 !
#18137
b00000000 !
#18200
b00000000 !
#18262
b00000000 !
#18325
b00000000 !
#18387
b00000000 !
#18450
b00000000 !
#18512
b00000000 !
#18575
b00000000 !
#18637
b00000000 !
#18700
b00000000 !
#18762
b00000000 !
#18825
b00000000 !
#18887
b00000000 !
#18950
b00000000 !
#19012
b00000000 !
#19075
b00000000 !
#19137
b00000000 !
#19200
b00000000 !
#19262
b00000000 !
#19325
b00000000 !
#19387
b00000000 !
#19450
b00000000 !
#19512
b00000000 !
#19575
b00000000 !
#19637
b00000000 !
#19700
b00000000 !
#19762
b00000000 !
#19825
b00000000 !
#19887
b00000000 !
#19950
b00000000 !
#20012
b00000000 !
#20075
b00000000 !
#20137
b00000000 !
#20200
b00000000 !
#20262
b00000000 !
#20325
b00000000 !
#20387
b00000000 !
#20450
b00000000 !
#20512
b00000000 !
#20575
b00000000 !
#20637
b00000000 !
#20700
b00000000 !
#20762
b00000000 !
#20825
b00000000 !
#20887
b00000000 !
#20950
b00000000 !
#21012
b00000000 !
#21075
b00000000 !
#21137
b00000000 !
#21200
b00000000 !
#21262
b00000000 !
#21325
b00000000 !
#21387
b00000000 !
#21450
b00000000 !
#21512
b00000000 !
#21575
b00000000 !
#21637
b00000000 !
#21700
b00000000 !
#21762
b00000000 !
#21825
b00000000 !
#21887
b00000000 !
#21950
b00000000 !
#22012
b00000000 !
#22075
b00000000 !
#22137
b00000000 !
#22200
b00000000 !
#22262
b00000000 !
#22325
b00000000 !
#22387
b00000000 !
#22450
b00000000 !
#22512
b00000000 !
#22575
b00000000 !
#22637
b00000000 !
#22700
b00000000 !
#22762
b00000000 !
#22825
b00000000 !
#22887
b00000000 !
#22950
b00000000 !
#23012
b00000000 !
#23075
b00000000 !
#23137
b00000000 !
#23200
b00000000 !
#23262
b00000000 !
#23325
b00000000 !
#23387
b00000000 !
#23450
b00000000 !
#23512
b00000000 !
#23575
b00000000 !
#23637
b00000000 !
#23700
b00000000 !
#23762
b00000000 !
#23825
b00000000 !
#23887
b00000000 !
#23950
b00000000 !
#24012
b00000000 !
#24075
b00000000 !
#24137
b00000000 !
#24200
b00000000 !
#24262
b00000000 !
#24325
b00000000 !
#24387
b00000000 !
#24450
b00000000 !
#24512
b00000000 !
#24575
b00000000 !
#24637
b00000000 !
#24700
b00000000 !
#24762
b00000000 !
#24825
b00000000 !
#24887
b00000000 !
#24950
b00000000 !
#25012
b00000000 !
#25075
b00000000 !
#25137
b00000000 !
#25200
b00000000 !
#25262
b00000000 !
#25325
b00000000 !
#25387
b00000000 !
#25450
b00000000 !
#25512
b00000000 !
#25575
b00000000 !
#25637
b00000000 !
#25700
b00000000 !
#25762
b00000000 !
#25825
b00000000 !
#25887
b00000000 !
#25950
b00000000 !
#26012
b00000000 !
#26075
b00000000 !
#26137
b00000000 !
#26200
b00000000 !
#26262
b00000000 !
#26325
b00000000 !
#26387
b00000000 !
#26450
b00000000 !
#26512
b00000000 !
#26575
b00000000 !
#26637
b00000000 !
#26700
b00000000 !
#26762
b00000000 !
#26825
b00000000 !
#26887
b00000000 !
#26950
b00000000 !
#27012
b00000000 !
#27075
b00000000 !
#27137
b00000000 !
#27200
b00000000 !
#27262
b00000000 !
#27325
b00000000 !
#27387
b00000000 !
#27450
b00000000 !
#27512
b00000000 !
#27575
b00000000 !
#27637
b00000000 !
#27700
b00000000 !
#27762
b00000000 !
#27825
b00000000 !
#27887
b00000000 !
#27950
b00000000 !
#28012
b00000000 !
#28075
b00000000 !
#28137
b00000000 !
#28200
b00000000 !
#28262
b00000000 !
#28325
b00000000 !
#28387
b00000000 !
#28450
b00000000 !
#28512
b00000000 !
#28575
b00000000 !
#28637
b00000000 !
#28700
b00000000 !
#28762
b00000000 !
#28825
b00000000 !
#28887
b00000000 !
#28950
b00000000 !
#29012
b00000000 !
#29075
b00000000 !
#29137
b00000000 !
#29200
b00000000 !
#29262
b00000000 !
#29325
b00000000 !
#29387
b00000000 !
#29450
b00000000 !
#29512
b00000000 !
#29575
b00000000 !
#29637
b00000000 !
#29700
b00000000 !
#29762
b00000000 !
#29825
b00000000 !
#29887
b00000000 !
#29950
b00000000 !
#30012
b00000000 !
#30075
b00000000 !
#30137
b00000000 !
#30200
b00000000 !
#30262
b00000000 !
#30325
b00000000 !
#30387
b00000000 !
#30450
b00000000 !
#30512
b00000000 !
#30575
b00000000 !
#30637
b00000000 !
#30700
b00000000 !
#30762
b00000000 !
#30825
b00000000 !
#30887
b00000000 !
#30950
b00000000 !
#31012
b00000000 !
#31075
b00000000 !
#31137
b00000000 !
#31200
b00000000 !
#31262
b00000000 !
#31325
b00000000 !
#31387
b00000000 !
#31450
b00000000 !
#31512
b00000000 !
#31575
b00000000 !
#31637
b00000000 !
#31700
b00000000 !
#31762
b00000000 !
#31825
b00000000 !
#31887
b00000000 !
#31950
b00000000 !
#32012
b00000000 !
#32075
b00000000 !
#32137
b00000000 !
#32200
b00000000 !
#32262
b00000000 !
#32325
b00000000 !
#32387
b00000000 !
#32450
b00000000 !
#32512
b00000000 !
#32575
b00000000 !
#32637
b00000000 !
#32700
b00000000 !
#32762
b00000000 !
#32825
b00000000 !
#32887
b00000000 !
#32950
b00000000 !
#33012
b00000000 !
#33075
b00000000 !
#33137
b00000000 !
#33200
b00000000 !
#33262
b00000000 !
#33325
b00000000 !
#33387
b00000000 !
#33450
b00000000 !
#33512
b00000000 !
#33575
b00000000 !
#33637
b00000000 !
#33700
b00000000 !
#33762
b00000000 !
#33825
b00000000 !
#33887
b00000000 !
#33950
b00000000 !
#34012
b00000000 !
#34075
b00000000 !
#34137
b00000000 !
#34200
b00000000 !
#34262
b00000000 !
#34325
b00000000 !
#34387
b00000000 !
#34450
b00000000 !
#34512
b00000000 !
#34575
b00000000 !
#34637
b00000000 !
#34700
b00000000 !
#34762
b00000000 !
#34825
b00000000 !
#34887
b00000000 !
#34950
b00000000 !
#35012
b00000000 !
#35075
b00000000 !
#35137
b00000000 !
#35200
b00000000 !
#35262
b00000000 !
#35325
b00000000 !
#35387
b00000000 !
#35450
b00000000 !
#35512
b00000000 !
#35575
b00000000 !
#35637
b00000000 !
#35700
b00000000 !
#35762
b00000000 !
#35825
b00000000 !
#35887
b00000000 !
#35950
b00000000 !
#36012
b00000000 !
#36075
b00000000 !
#36137
b00000000 !
#36200
b00000000 !
#36262
b00000000 !
#36325
b00000000 !
#36387
b00000000 !
#36450
b00000000 !
#36512
b00000000 !
#36575
b00000000 !
#36637
b00000000 !
#36700
b00000000 !
#36762
b00000000 !
#36825
b00000000 !
#36887
b00000000 !
#36950
b00000000 !
#37012
b00000000 !
#37075
b00000000 !
#37137
b00000000 !
#37200
b00000000 !
#37262
b00000000 !
#37325
b00000000 !
#37387
b00000000 !
#37450
b00000000 !
#37512
b00000000 !
#37575
b00000000 !
#37637
b00000000 !
#37700
b00000000 !
#37762
b00000000 !
#37825
b00000000 !
#37887
b00000000 !
#37950
b00000000 !
#38012
b00000000 !
#38075
b00000000 !
#38137
b00000000 !
#38200
b00000000 !
#38262
b00000000 !
#38325
b00000000 !
#38387
b00000000 !
#38450
b00000000 !
#38512
b00000000 !
#38575
b00000000 !
#38637
b00000000 !
#38700
b00000000 !
#38762
b00000000 !
#38825
b00000000 !
#38887
b00000000 !
#38950
b00000000 !
#39012
b00000000 !
#39075
b00000000 !
#39137
b00000000 !
#39200
b00000000 !
#39262
b00000000 !
#39325
b00000000 !
#39387
b00000000 !
#39450
b00000000 !
#39512
b00000000 !
#39575
b00000000 !
#39637
b00000000 !
#39700
b00000000 !
#39762
b00000000 !
#39825
b00000000 !
#39887
b00000000 !
#39950
b00000000 !
#40012
b00000000 !
#40075
b00000000 !
#40137
b00000000 !
#40200
b00000000 !
#40262
b00000000 !
#40325
b00000000 !
#40387
b00000000 !
#40450
b00000000 !
#40512
b00000000 !
#40575
b00000000 !
#40637
b00000000 !
#40700
b00000000 !
#40762
b00000000 !
#40825
b00000000 !
#40887
b00000000 !
#40950
b00000000 !
#41012
b00000000 !
#41075
b00000000 !
#41137
b00000000 !
#41200
b00000000 !
#41262
b00000000 !
#41325
b00000000 !
#41387
b00000000 !
#41450
b00000000 !
#41512
b00000000 !
#41575
b00000000 !
#41637
b00000000 !
#41700
b00000000 !
#41762
b00000000 !
#41825
b00000000 !
#41887
b00000000 !
#41950
b00000000 !
#42012
b00000000 !
#42075
b00000000 !
#42137
b00000000 !
#42200
b00000000 !
#42262
b00000000 !
#42325
b00000000 !
#42387
b00000000 !
#42450
b00000000 !
#42512
b00000000 !
#42575
b00000000 !
#42637
b00000000 !
#42700
b00000000 !
#42762
b00000000 !
#42825
b00000000 !
#42887
b00000000 !
#42950
b00000000 !
#43012
b00000000 !
#43075
b00000000 !
#43137
b00000000 !
#43200
b00000000 !
#43262
b00000000 !
#43325
b00000000 !
#43387
b00000000 !
#43450
b00000000 !
#43512
b00000000 !
#43575
b00000000 !
#43637
b00000000 !
#43700
b00000000 !
#43762
b00000000 !
#43825
b00000000 !
#43887
b00000000 !
#43950
b00000000 !
#44012
b00000000 !
#44075
b00000000 !
#44137
b00000000 !
#44200
b00000000 !
#44262
b00000000 !
#44325
b00000000 !
#44387
b00000000 !
#44450
b00000000 !
#44512
b00000000 !
#44575
b00000000 !
#44637
b00000000 !
#44700
b00000000 !
#44762
b00000000 !
#44825
b00000000 !
#44887
b00000000 !
#44950
b00000000 !
#45012
b00000000 !
#45075
b00000000 !
#45137
b00000000 !
#45200
b00000000 !
#45262
b00000000 !
#45325
b00000000 !
#45387
b00000000 !
#45450
b00000000 !
#45512
b00000000 !
#45575
b00000000 !
#45637
b00000000 !
#45700
b00000000 !
#45762
b00000000 !
#45825
b00000000 !
#45887
b00000000 !
#45950
b00000000 !
#46012
b00000000 !
#46075
b00000000 !
#46137
b00000000 !
#46200
b00000000 !
#46262
b00000000 !
#46325
b00000000 !
#46387
b00000000 !
#46450
b00000000 !
#46512
b00000000 !
#46575
b00000000 !
#46637
b00000000 !
#46700
b00000000 !
#46762
b00000000 !
#46825
b00000000 !
#46887
b00000000 !
#46950
b00000000 !
#47012
b00000000 !
#47075
b00000000 !
#47137
b00000000 !
#47200
b00000000 !
#47262
b00000000 !
#47325
b00000000 !
#47387
b00000000 !
#47450
b00000000 !
#47512
b00000000 !
#47575
b00000000 !
#47637
b00000000 !
#47700
b00000000 !
#47762
b00000000 !
#47825
b00000000 !
#47887
b00000000 !
#47950
b00000000 !
#48012
b00000000 !
#48075
b00000000 !
#48137
b00000000 !
#48200
b00000000 !
#48262
b00000000 !
#48325
b00000000 !
#48387
b00000000 !
#48450
b00000000 !
#48512
b00000000 !
#48575
b00000000 !
#48637
b00000000 !
#48700
b00000000 !
#48762
b00000000 !
#48825
b00000000 !
#48887
b00000000 !
#48950
b00000000 !
#49012
b00000000 !
#49075
b00000000 !
#49137
b00000000 !
#49200
b00000000 !
#49262
b00000000 !
#49325
b00000000 !
#49387
b00000000 !
#49450
b00000000 !
#49512
b00000000 !
#49575
b00000000 !
#49637
b00000000 !
#49700
b00000000 !
#49762
b00000000 !
#49825
b00000000 !
#49887
b00000000 !
#49950
b00000000 !
#50012
b00000000 !
#50075
b00000000 !
#50137
b00000000 !
#50200
b00000000 !
#50262
b00000000 !
#50325
b00000000 !
#50387
b00000000 !
#50450
b00000000 !
#50512
b00000000 !
#50575
b00000000 !
#50637
b00000000 !
#50700
b00000000 !
#50762
b00000000 !
#50825
b00000000 !
#50887
b00000000 !
#50950
b00000000 !
#51012
b00000000 !
#51075
b00000000 !
#51137
b00000000 !
#51200
b00000000 !
#51262
b00000000 !
#51325
b00000000 !
#51387
b00000000 !
#51450
b00000000 !
#51512
b00000000 !
#51575
b00000000 !
#51637
b00000000 !
#51700
b00000000 !
#51762
b00000000 !
#51825
b00000000 !
#51887
b00000000 !
#51950
b00000000 !
#52012
b00000000 !
#52075
b00000000 !
#52137
b00000000 !
#52200
b00000000 !
#52262
b00000000 !
#52325
b00000000 !
#52387
b00000000 !
#52450
b00000000 !
#52512
b00000000 !
#52575
b00000000 !
#52637
b00000000 !
#52700
b00000000 !
#52762
b00000000 !
#52825
b00000000 !
#52887
b00000000 !
#52950
b00000000 !
#53012
b00000000 !
#53075
b00000000 !
#53137
b00000000 !
#53200
b00000000 !
#53262
b00000000 !
#53325
b00000000 !
#53387
b00000000 !
#53450
b00000000 !
#53512
b00000000 !
#53575
b00000000 !
#53637
b00000000 !
#53700
b00000000 !
#53762
b00000000 !
#53825
b00000000 !
#53887
b00000000 !
#53950
b00000000 !
#54012
b00000000 !
#54075
b00000000 !
#54137
b00000000 !
#54200
b00000000 !
#54262
b00000000 !
#54325
b00000000 !
#54387
b00000000 !
#54450
b00000000 !
#54512
b00000000 !
#54575
b00000000 !
#54637
b00000000 !
#54700
b00000000 !
#54762
b00000000 !
#54825
b00000000 !
#54887
b00000000 !
#54950
b00000000 !
#55012
b00000000 !
#55075
b00000000 !
#55137
b00000000 !
#55200
b00000000 !
#55262
b00000000 !
#55325
b00000000 !
#55387
b00000000 !
#55450
b00000000 !
#55512
b00000000 !
#55575
b00000000 !
#55637
b00000000 !
#55700
b00000000 !
#55762
b00000000 !
#55825
b00000000 !
#55887
b00000000 !
#55950
b00000000 !
#56012
b00000000 !
#56075
b00000000 !
#56137
b00000000 !
#56200
b00000000 !
#56262
b00000000 !
#56325
b00000000 !
#56387
b00000000 !
#56450
b00000000 !
#56512
b00000000 !
#56575
b00000000 !
#56637
b00000000 !
#56700
b00000000 !
#56762
b00000000 !
#56825
b00000000 !
#56887
b00000000 !
#56950
b00000000 !
#57012
b00000000 !
#57075
b00000000 !
#57137
b00000000 !
#57200
b00000000 !
#57262
b00000000 !
#57325
b00000000 !
#57387
b00000000 !
#57450
b00000000 !
#57512
b00000000 !
#57575
b00000000 !
#57637
b00000000 !
#57700
b00000000 !
#57762
b00000000 !
#57825
b00000000 !
#57887
b00000000 !
#57950
b00000000 !
#58012
b00000000 !
#58075
b00000000 !
#58137
b00000000 !
#58200
b00000000 !
#58262
b00000000 !
#58325
b00000000 !
#58387
b00000000 !
#58450
b00000000 !
#58512
b00000000 !
#58575
b00000000 !
#58637
b00000000 !
#58700
b00000000 !
#58762
b00000000 !
#58825
b00000000 !
#58887
b00000000 !
#58950
b00000000 !
#59012
b00000000 !
#59075
b00000000 !
#59137
b00000000 !
#59200
b00000000 !
#59262
b00000000 !
#59325
b00000000 !
#59387
b00000000 !
#59450
b00000000 !
#59512
b00000000 !
#59575
b00000000 !
#59637
b00000000 !
#59700
b00000000 !
#59762
b00000000 !
#59825
b00000000 !
#59887
b00000000 !
#59950
b00000000 !
#60012
b00000000 !
#60075
b00000000 !
#60137
b00000000 !
#60200
b00000000 !
#60262
b00000000 !
#60325
b00000000 !
#60387
b00000000 !
#60450
b00000000 !
#60512
b00000000 !
#60575
b00000000 !
#60637
b00000000 !
#60700
b00000000 !
#60762
b00000000 !
#60825
b00000000 !
#60887
b00000000 !
#60950
b00000000 !
#61012
b00000000 !
#61075
b00000000 !
#61137
b00000000 !
#61200
b00000000 !
#61262
b00000000 !
#61325
b00000000 !
#61387
b00000000 !
#61450
b00000000 !
#61512
b00000000 !
#61575
b00000000 !
#61637
b00000000 !
#61700
b00000000 !
#61762
b00000000 !
#61825
b00000000 !
#61887
b00000000 !
#61950
b00000000 !
#62012
b00000000 !
#62075
b00000000 !
#62137
b00000000 !
#62200
b00000000 !
#62262
b00000000 !
#62325
b00000000 !
#62387
b00000000 !
#62450
b00000000 !
#62512
b00000000 !
#62575
b00000000 !
#62637
b00000000 !
#62700
b00000000 !
#62762
b00000000 !
#62825
b00000000 !
#62887
b00000000 !
#62950
b00000000 !
#63012
b00000000 !
#63075
b00000000 !
#63137
b00000000 !
#63200
b00000000 !
#63262
b00000000 !
#63325
b00000000 !
#63387
b00000000 !
#63450
b00000000 !
#63512
b00000000 !
#63575
b00000000 !
#63637
b00000000 !
#63700
b00000000 !
#63762
b00000000 !
#63825
b00000000 !
#63887
b00000000 !
#63950
b00000000 !
#64012
b00000000 !
#64075
b00000000 !
#64137
b00000000 !
#64200
b00000000 !
#64262
b00000000 !
#64325
b00000000 !
#64387
b00000000 !
#64450
b00000000 !
#64512
b00000000 !
#64575
b00000000 !
#64637
b00000000 !
#64700
b00000000 !
#64762
b00000000 !
#64825
b00000000 !
#64887
b00000000 !
#64950
b00000000 !
#65012
b00000000 !
#65075
b00000000 !
#65137
b00000000 !
#65200
b00000000 !
#65262
b00000000 !
#65325
b00000000 !
#65387
b00000000 !
#65450
b00000000 !
#65512
b00000000 !
#65575
b00000000 !
#65637
b00000000 !
#65700
b00000000 !
#65762
b00000000 !
#65825
b00000000 !
#65887
b00000000 !
#65950
b00000000 !
#66012
b00000000 !
#66075
b00000000 !
#66137
b00000000 !
#66200
b00000000 !
#66262
b00000000 !
#66325
b00000000 !
#66387
b00000000 !
#66450
b00000000 !
#66512
b00000000 !
#66575
b00000000 !
#66637
b00000000 !
#66700
b00000000 !
#66762
b00000000 !
#66825
b00000000 !
#66887
b00000000 !
#66950
b00000000 !
#67012
b00000000 !
#67075
b00000000 !
#67137
b00000000 !
#67200
b00000000 !
#67262
b00000000 !
#67325
b00000000 !
#67387
b00000000 !
#67450
b00000000 !
#67512
b00000000 !
#67575
b00000000 !
#67637
b00000000 !
#67700
b00000000 !
#67762
b00000000 !
#67825
b00000000 !
#67887
b00000000 !
#67950
b00000000 !
#68012
b00000000 !
#68075
b00000000 !
#68137
b00000000 !
#68200
b00000000 !
#68262
b00000000 !
#68325
b00000000 !
#68387
b00000000 !
#68450
b00000000 !
#68512
b00000000 !
#68575
b00000000 !
#68637
b00000000 !
#68700
b00000000 !
#68762
b00000000 !
#68825
b00000000 !
#68887
b00000000 !
#68950
b00000000 !
#69012
b00000000 !
#69075
b00000000 !
#69137
b00000000 !
#69200
b00000000 !
#69262
b00000000 !
#69325
b00000000 !
#69387
b00000000 !
#69450
b00000000 !
#69512
b00000000 !
#69575
b00000000 !
#69637
b00000000 !
#69700
b00000000 !
#69762
b00000000 !
#69825
b00000000 !
#69887
b00000000 !
#69950
b00000000 !
#70012
b00000000 !
#70075
b00000000 !
#70137
b00000000 !
#70200
b00000000 !
#70262
b00000000 !
#70325
b00000000 !
#70387
b00000000 !
#70450
b00000000 !
#70512
b00000000 !
#70575
b00000000 !
#70637
b00000000 !
#70700
b00000000 !
#70762
b00000000 !
#70825
b00000000 !
#70887
b00000000 !
#70950
b00000000 !
#71012
b00000000 !
#71075
b00000000 !
#71137
b00000000 !
#71200
b00000000 !
#71262
b00000000 !
#71325
b00000000 !
#71387
b00000000 !
#71450
b00000000 !
#71512
b00000000 !
#71575
b00000000 !
#71637
b00000000 !
#71700
b00000000 !
#71762
b00000000 !
#71825
b00000000 !
#71887
b00000000 !
#71950
b00000000 !
#72012
b00000000 !
#72075
b00000000 !
#72137
b00000000 !
#72200
b00000000 !
#72262
b00000000 !
#72325
b00000000 !
#72387
b00000000 !
#72450
b00000000 !
#72512
b00000000 !
#72575
b00000000 !
#72637
b00000000 !
#72700
b00000000 !
#72762
b00000000 !
#72825
b00000000 !
#72887
b00000000 !
#72950
b00000000 !
#73012
b00000000 !
#73075
b00000000 !
#73137
b00000000 !
#73200
b00000000 !
#73262
b00000000 !
#73325
b00000000 !
#73387
b00000000 !
#73450
b00000000 !
#73512
b00000000 !
#73575
b00000000 !
#73637
b00000000 !
#73700
b00000000 !
#73762
b00000000 !
#73825
b00000000 !
#73887
b00000000 !
#73950
b00000000 !
#74012
b00000000 !
#74075
b00000000 !
#74137
b00000000 !
#74200
b00000000 !
#74262
b00000000 !
#74325
b00000000 !
#74387
b00000000 !
#74450
b00000000 !
#74512
b00000000 !
#74575
b00000000 !
#74637
b00000000 !
#74700
b00000000 !
#74762
b00000000 !
#74825
b00000000 !
#74887
b00000000 !
#74950
b00000000 !
#75012
b00000000 !
#75075
b00000000 !
#75137
b00000000 !
#75200
b00000000 !
#75262
b00000000 !
#75325
b00000000 !
#75387
b00000000 !
#75450
b00000000 !
#75512
b00000000 !
#75575
b00000000 !
#75637
b00000000 !
#75700
b00000000 !
#75762
b00000000 !
#75825
b00000000 !
#75887
b00000000 !
#75950
b00000000 !
#76012
b00000000 !
#76075
b00000000 !
#76137
b00000000 !
#76200
b00000000 !
#76262
b00000000 !
#76325
b00000000 !
#76387
b00000000 !
#76450
b00000000 !
#76512
b00000000 !
#76575
b00000000 !
#76637
b00000000 !
#76700
b00000000 !
#76762
b00000000 !
#76825
b00000000 !
#76887
b00000000 !
#76950
b00000000 !
#77012
b00000000 !
#77075
b00000000 !
#77137
b00000000 !
#77200
b00000000 !
#77262
b00000000 !
#77325
b00000000 !
#77387
b00000000 !
#77450
b00000000 !
#77512
b00000000 !
#77575
b00000000 !
#77637
b00000000 !
#77700
b00000000 !
#77762
b00000000 !
#77825
b00000000 !
#77887
b00000000 !
#77950
b00000000 !
#78012
b00000000 !
#78075
b00000000 !
#78137
b00000000 !
#78200
b00000000 !
#78262
b00000000 !
#78325
b00000000 !
#78387
b00000000 !
#78450
b00000000 !
#78512
b00000000 !
#78575
b00000000 !
#78637
b00000000 !
#78700
b00000000 !
#78762
b00000000 !
#78825
b00000000 !
#78887
b00000000 !
#78950
b00000000 !
#79012
b00000000 !
#79075
b00000000 !
#79137
b00000000 !
#79200
b00000000 !
#79262
b00000000 !
#79325
b00000000 !
#79387
b00000000 !
#79450
b00000000 !
#79512
b00000000 !
#79575
b00000000 !
#79637
b00000000 !
#79700
b00000000 !
#79762
b00000000 !
#79825
b00000000 !
#79887
b00000000 !
#79950
b00000000 !
#80012
b00000000 !
#80075
b00000000 !
#80137
b00000000 !
#80200
b00000000 !
#80262
b00000000 !
#80325
b00000000 !
#80387
b00000000 !
#80450
b00000000 !
#80512
b00000000 !
#80575
b00000000 !
#80637
b00000000 !
#80700
b00000000 !
#80762
b00000000 !
#80825
b00000000 !
#80887
b00000000 !
#80950
b00000000 !
#81012
b00000000 !
#81075
b00000000 !
#81137
b00000000 !
#81200
b00000000 !
#81262
b00000000 !
#81325
b00000000 !
#81387
b00000000 !
#81450
b00000000 !
#81512
b00000000 !
#81575
b00000000 !
#81637
b00000000 !
#81700
b00000000 !
#81762
b00000000 !
#81825
b00000000 !
#81887
b00000000 !
#81950
b00000000 !
#82012
b00000000 !
#82075
b00000000 !
#82137
b00000000 !
#82200
b00000000 !
#82262
b00000000 !
#82325
b00000000 !
#82387
b00000000 !
#82450
b00000000 !
#82512
b00000000 !
#82575
b00000000 !
#82637
b00000000 !
#82700
b00000000 !
#82762
b00000000 !
#82825
b00000000 !
#82887
b00000000 !
#82950
b00000000 !
#83012
b00000000 !
#83075
b00000000 !
#83137
b00000000 !
#83200
b00000000 !
#83262
b00000000 !
#83325
b00000000 !
#83387
b00000000 !
#83450
b00000000 !
#83512
b00000000 !
#83575
b00000000 !
#83637
b00000000 !
#83700
b00000000 !
#83762
b00000000 !
#83825
b00000000 !
#83887
b00000000 !
#83950
b00000000 !
