Code/gtkwave_trace.vcd
$timescale 10ns $end
$scope module logic $end
$var wire 8 ! UCSR0A $end
$var wire 8 " UCSR0B $end
$var wire 8 # UCSR0C $end
$var wire 8 $ UBRR0H $end
$var wire 8 % UBRR0L $end
$var wire 1 & UDRE0 $end
$var wire 8 ' UDR0 $end
$var wire 8 ( PORTE $end
$var wire 1 ) PE1 $end
$upscope $end
$enddefinitions $end
$dumpvars
bxxxxxxxx !
bxxxxxxxx "
bxxxxxxxx #
bxxxxxxxx $
bxxxxxxxx %
x&
bxxxxxxxx '
bxxxxxxxx (
x)
$end
#2225
b00000000 !
0&
#2250
b00000000 $
#2287
b00110011 %
#2325
b00011000 "
#2362
b00000110 #
#3775
b00100000 !
1&
#3825
b00000000 '
#4050
b00000000 !
0&
#4112
b00000000 !
#4175
b00000000 !
#4237
b00000000 !
#4300
b00000000 !
#4362
b00000000 !
#4425
b00000000 !
#4487
b00000000 !
#4550
b00000000 !
#4612
b00000000 !
#4675
b00000000 !
#4737
b00000000 !
#4800
b00000000 !
#4862
b00000000 !
#4925
b00000000 !
#4987
b00000000 !
#5050
b00000000 !
#5112
b00000000 !
#5175
b00000000 !
#5237
b00000000 !
#5300
b00000000 !
#5362
b00000000 !
#5425
b00000000 !
#5487
b00000000 !
#5550
b00000000 !
#5612
b00000000 !
#5675
b00000000 !
#5737
b00000000 !
#5800
b00000000 !
#5862
b00000000 !
#5925
b00000000 !
#5987
b00000000 !
#6050
b00000000 !
#6112
b00000000 !
#6175
b00000000 !
#6237
b00000000 !
#6300
b00000000 !
#6362
b00000000 !
#6425
b00000000 !
#6487
b00000000 !
#6550
b00000000 !
#6612
b00000000 !
#6675
b00000000 !
#6737
b00000000 !
#6800
b00000000 !
#6862
b00000000 !
#6925
b00000000 !
#6987
b00000000 !
#7050
b00000000 !
#7112
b00000000 !
#7175
b00000000 !
#7237
b00000000 !
#7300
b00000000 !
#7362
b00000000 !
#7425
b00000000 !
#7487
b00000000 !
#7550
b00000000 !
#7612
b00000000 !
#7675
b00000000 !
#7737
b00000000 !
#7800
b00000000 !
#7862
b00000000 !
#7925
b00000000 !
#7987
b00000000 !
#8050
b00000000 !
#8112
b00000000 !
#8175
b00000000 !
#8237
b00000000 !
#8300
b00000000 !
#8362
b00000000 !
#8425
b00000000 !
#8487
b00000000 !
#8550
b00000000 !
#8612
b00000000 !
#8675
b00000000 !
#8737
b00000000 !
#8800
b00000000 !
#8862
b00000000 !
#8925
b00000000 !
#8987
b00000000 !
#9050
b00000000 !
#9112
b00000000 !
#9175
b00000000 !
#9237
b00000000 !
#9300
b00000000 !
#9362
b00000000 !
#9425
b00000000 !
#9487
b00000000 !
#9550
b00000000 !
#9612
b00000000 !
#9675
b00000000 !
#9737
b00000000 !
#9800
b00000000 !
#9862
b00000000 !
#9925
b00000000 !
#9987
b00000000 !
#10050
b00000000 !
#10112
b00000000 !
#10175
b00000000 !
#10237
b00000000 !
#10300
b00000000 !
#10362
b00000000 !
#10425
b00000000 !
#10487
b00000000 !
#10550
b00000000 !
#10612
b00000000 !
#10675
b00000000 !
#10737
b00000000 !
#10800
b00000000 !
#10862
b00000000 !
#10925
b00000000 !
#10987
b00000000 !
#11050
b00000000 !
#11112
b00000000 !
#11175
b00000000 !
#11237
b00000000 !
#11300
b00000000 !
#11362
b00000000 !
#11425
b00000000 !
#11487
b00000000 !
#11550
b00000000 !
#11612
b00000000 !
#11675
b00000000 !
#11737
b00000000 !
#11800
b00000000 !
#11862
b00000000 !
#11925
b00000000 !
#11987
b00000000 !
#12050
b00000000 !
#12112
b00000000 !
#12175
b00000000 !
#12237
b00000000 !
#12300
b00000000 !
#12362
b00000000 !
#12425
b00000000 !
#12487
b00000000 !
#12550
b00000000 !
#12612
b00000000 !
#12675
b00000000 !
#12737
b00000000 !
#12800
b00000000 !
#12862
b00000000 !
#12925
b00000000 !
#12987
b00000000 !
#13050
b00000000 !
#13112
b00000000 !
#13175
b00000000 !
#13237
b00000000 !
#13300
b00000000 !
#13362
b00000000 !
#13425
b00000000 !
#13487
b00000000 !
#13550
b00000000 !
#13612
b00000000 !
#13675
b00000000 !
#13737
b00000000 !
#13800
b00000000 !
#13862
b00000000 !
#13925
b00000000 !
#13987
b00000000 !
#14050
b00000000 !
#14112
b00000000 !
#14175
b00000000 !
#14237
b00000000 !
#14300
b00000000 !
#14362
b00000000 !
#14425
b00000000 !
#14487
b00000000 !
#14550
b00000000 !
#14612
b00000000 !
#14675
b00000000 !
#14737
b00000000 !
#14800
b00000000 !
#14862
b00000000 !
#14925
b00000000 !
#14987
b00000000 !
#15050
b00000000 !
#15112
b00000000 !
#15175
b00000000 !
#15237
b00000000 !
#15300
b00000000 !
#15362
b00000000 !
#15425
b00000000 !
#15487
b00000000 !
#15550
b00000000 !
#15612
b00000000 !
#15675
b00000000 !
#15737
b00000000 !
#15800
b00000000 !
#15862
b00000000 !
#15925
b00000000 !
#15987
b00000000 !
#16050
b00000000 !
#16112
b00000000 !
#16175
b00000000 !
#16237
b00000000 !
#16300
b00000000 !
#16362
b00000000 !
#16425
b00000000 !
#16487
b00000000 !
#16550
b00000000 !
#16612
b00000000 !
#16675
b00000000 !
#16737
b00000000 !
#16800
b00000000 !
#16862
b00000000 !
#16925
b00000000 !
#16987
b00000000 !
#17050
b00000000 !
#17112
b00000000 !
#17175
b00000000 !
#17237
b00000000 !
#17300
b00000000 !
#17362
b00000000 !
#17425
b00000000 !
#17487
b00000000 !
#17550
b00000000 !
#17612
b00000000 !
#17675
b00000000 !
#17737
b00000000 !
#17800
b00000000 !
#17862
b00000000 !
#17925
b00000000 !
#17987
b00000000 !
#18050
b00000000 !
#18112
b00000000 !
#18175
b00000000 !
#18237
b00000000 !
#18300
b00000000 !
#18362
b00000000 !
#18425
b00000000 !
#18487
b00000000 !
#18550
b00000000 !
#18612
b00000000 !
#18675
b00000000 !
#18737
b00000000 !
#18800
b00000000 !
#18862
b00000000 !
#18925
b00000000 !
#18987
b00000000 !
#19050
b00000000 !
#19112
b00000000 !
#19175
b00000000 !
#19237
b00000000 !
#19300
b00000000 !
#19362
b00000000 !
#19425
b00000000 !
#19487
b00000000 !
#19550
b00000000 !
#19612
b00000000 !
#19675
b00000000 !
#19737
b00000000 !
#19800
b00000000 !
#19862
b00000000 !
#19925
b00000000 !
#19987
b00000000 !
#20050
b00000000 !
#20112
b00000000 !
#20175
b00000000 !
#20237
b00000000 !
#20300
b00000000 !
#20362
b00000000 !
#20425
b00000000 !
#20487
b00000000 !
#20550
b00000000 !
#20612
b00000000 !
#20675
b00000000 !
#20737
b00000000 !
#20800
b00000000 !
#20862
b00000000 !
#20925
b00000000 !
#20987
b00000000 !
#21050
b00000000 !
#21112
b00000000 !
#21175
b00000000 !
#21237
b00000000 !
#21300
b00000000 !
#21362
b00000000 !
#21425
b00000000 !
#21487
b00000000 !
#21550
b00000000 !
#21612
b00000000 !
#21675
b00000000 !
#21737
b00000000 !
#21800
b00000000 !
#21862
b00000000 !
#21925
b00000000 !
#21987
b00000000 !
#22050
b00000000 !
#22112
b00000000 !
#22175
b00000000 !
#22237
b00000000 !
#22300
b00000000 !
#22362
b00000000 !
#22425
b00000000 !
#22487
b00000000 !
#22550
b00000000 !
#22612
b00000000 !
#22675
b00000000 !
#22737
b00000000 !
#22800
b00000000 !
#22862
b00000000 !
#22925
b00000000 !
#22987
b00000000 !
#23050
b00000000 !
#23112
b00000000 !
#23175
b00000000 !
#23237
b00000000 !
#23300
b00000000 !
#23362
b00000000 !
#23425
b00000000 !
#23487
b00000000 !
#23550
b00000000 !
#23612
b00000000 !
#23675
b00000000 !
#23737
b00000000 !
#23800
b00000000 !
#23862
b00000000 !
#23925
b00000000 !
#23987
b00000000 !
#24050
b00000000 !
#24112
b00000000 !
#24175
b00000000 !
#24237
b00000000 !
#24300
b00000000 !
#24362
b00000000 !
#24425
b00000000 !
#24487
b00000000 !
#24550
b00000000 !
#24612
b00000000 !
#24675
b00000000 !
#24737
b00000000 !
#24800
b00000000 !
#24862
b00000000 !
#24925
b00000000 !
#24987
b00000000 !
#25050
b00000000 !
#25112
b00000000 !
#25175
b00000000 !
#25237
b00000000 !
#25300
b00000000 !
#25362
b00000000 !
#25425
b00000000 !
#25487
b00000000 !
#25550
b00000000 !
#25612
b00000000 !
#25675
b00000000 !
#25737
b00000000 !
#25800
b00000000 !
#25862
b00000000 !
#25925
b00000000 !
#25987
b00000000 !
#26050
b00000000 !
#26112
b00000000 !
#26175
b00000000 !
#26237
b00000000 !
#26300
b00000000 !
#26362
b00000000 !
#26425
b00000000 !
#26487
b00000000 !
#26550
b00000000 !
#26612
b00000000 !
#26675
b00000000 !
#26737
b00000000 !
#26800
b00000000 !
#26862
b00000000 !
#26925
b00000000 !
#26987
b00000000 !
#27050
b00000000 !
#27112
b00000000 !
#27175
b00000000 !
#27237
b00000000 !
#27300
b00000000 !
#27362
b00000000 !
#27425
b00000000 !
#27487
b00000000 !
#27550
b00000000 !
#27612
b00000000 !
#27675
b00000000 !
#27737
b00000000 !
#27800
b00000000 !
#27862
b00000000 !
#27925
b00000000 !
#27987
b00000000 !
#28050
b00000000 !
#28112
b00000000 !
#28175
b00000000 !
#28237
b00000000 !
#28300
b00000000 !
#28362
b00000000 !
#28425
b00000000 !
#28487
b00000000 !
#28550
b00000000 !
#28612
b00000000 !
#28675
b00000000 !
#28737
b00000000 !
#28800
b00000000 !
#28862
b00000000 !
#28925
b00000000 !
#28987
b00000000 !
#29050
b00000000 !
#29112
b00000000 !
#29175
b00000000 !
#29237
b00000000 !
#29300
b00000000 !
#29362
b00000000 !
#29425
b00000000 !
#29487
b00000000 !
#29550
b00000000 !
#29612
b00000000 !
#29675
b00000000 !
#29737
b00000000 !
#29800
b00000000 !
#29862
b00000000 !
#29925
b00000000 !
#29987
b00000000 !
#30050
b00000000 !
#30112
b00000000 !
#30175
b00000000 !
#30237
b00000000 !
#30300
b00000000 !
#30362
b00000000 !
#30425
b00000000 !
#30487
b00000000 !
#30550
b00000000 !
#30612
b00000000 !
#30675
b00000000 !
#30737
b00000000 !
#30800
b00000000 !
#30862
b00000000 !
#30925
b00000000 !
#30987
b00000000 !
#31050
b00000000 !
#31112
b00000000 !
#31175
b00000000 !
#31237
b00000000 !
#31300
b00000000 !
#31362
b00000000 !
#31425
b00000000 !
#31487
b00000000 !
#31550
b00000000 !
#31612
b00000000 !
#31675
b00000000 !
#31737
b00000000 !
#31800
b00000000 !
#31862
b00000000 !
#31925
b00000000 !
#31987
b00000000 !
#32050
b00000000 !
#32112
b00000000 !
#32175
b00000000 !
#32237
b00000000 !
#32300
b00000000 !
#32362
b00000000 !
#32425
b00000000 !
#32487
b00000000 !
#32550
b00000000 !
#32612
b00000000 !
#32675
b00000000 !
#32737
b00000000 !
#32800
b00000000 !
#32862
b00000000 !
#32925
b00000000 !
#32987
b00000000 !
#33050
b00000000 !
#33112
b00000000 !
#33175
b00000000 !
#33237
b00000000 !
#33300
b00000000 !
#33362
b00000000 !
#33425
b00000000 !
#33487
b00000000 !
#33550
b00000000 !
#33612
b00000000 !
#33675
b00000000 !
#33737
b00000000 !
#33800
b00000000 !
#33862
b00000000 !
#33925
b00000000 !
#33987
b00000000 !
#34050
b00000000 !
#34112
b00000000 !
#34175
b00000000 !
#34237
b00000000 !
#34300
b00000000 !
#34362
b00000000 !
#34425
b00000000 !
#34487
b00000000 !
#34550
b00000000 !
#34612
b00000000 !
#34675
b00000000 !
#34737
b00000000 !
#34800
b00000000 !
#34862
b00000000 !
#34925
b00000000 !
#34987
b00000000 !
#35050
b00000000 !
#35112
b00000000 !
#35175
b00000000 !
#35237
b00000000 !
#35300
b00000000 !
#35362
b00000000 !
#35425
b00000000 !
#35487
b00000000 !
#35550
b00000000 !
#35612
b00000000 !
#35675
b00000000 !
#35737
b00000000 !
#35800
b00000000 !
#35862
b00000000 !
#35925
b00000000 !
#35987
b00000000 !
#36050
b00000000 !
#36112
b00000000 !
#36175
b00000000 !
#36237
b00000000 !
#36300
b00000000 !
#36362
b00000000 !
#36425
b00000000 !
#36487
b00000000 !
#36550
b00000000 !
#36612
b00000000 !
#36675
b00000000 !
#36737
b00000000 !
#36800
b00000000 !
#36862
b00000000 !
#36925
b00000000 !
#36987
b00000000 !
#37050
b00000000 !
#37112
b00000000 !
#37175
b00000000 !
#37237
b00000000 !
#37300
b00000000 !
#37362
b00000000 !
#37425
b00000000 !
#37487
b00000000 !
#37550
b00000000 !
#37612
b00000000 !
#37675
b00000000 !
#37737
b00000000 !
#37800
b00000000 !
#37862
b00000000 !
#37925
b00000000 !
#37987
b00000000 !
#38050
b00000000 !
#38112
b00000000 !
#38175
b00000000 !
#38237
b00000000 !
#38300
b00000000 !
#38362
b00000000 !
#38425
b00000000 !
#38487
b00000000 !
#38550
b00000000 !
#38612
b00000000 !
#38675
b00000000 !
#38737
b00000000 !
#38800
b00000000 !
#38862
b00000000 !
#38925
b00000000 !
#38987
b00000000 !
#39050
b00000000 !
#39112
b00000000 !
#39175
b00000000 !
#39237
b00000000 !
#39300
b00000000 !
#39362
b00000000 !
#39425
b00000000 !
#39487
b00000000 !
#39550
b00000000 !
#39612
b00000000 !
#39675
b00000000 !
#39737
b00000000 !
#39800
b00000000 !
#39862
b00000000 !
#39925
b00000000 !
#39987
b00000000 !
#40050
b00000000 !
#40112
b00000000 !
#40175
b00000000 !
#40237
b00000000 !
#40300
b00000000 !
#40362
b00000000 !
#40425
b00000000 !
#40487
b00000000 !
#40550
b00000000 !
#40612
b00000000 !
#40675
b00000000 !
#40737
b00000000 !
#40800
b00000000 !
#40862
b00000000 !
#40925
b00000000 !
#40987
b00000000 !
#41050
b00000000 !
#41112
b00000000 !
#41175
b00000000 !
#41237
b00000000 !
#41300
b00000000 !
#41362
b00000000 !
#41425
b00000000 !
#41487
b00000000 !
#41550
b00000000 !
#41612
b00000000 !
#41675
b00000000 !
#41737
b00000000 !
#41800
b00000000 !
#41862
b00000000 !
#41925
b00000000 !
#41987
b00000000 !
#42050
b00000000 !
#42112
b00000000 !
#42175
b00000000 !
#42237
b00000000 !
#42300
b00000000 !
#42362
b00000000 !
#42425
b00000000 !
#42487
b00000000 !
#42550
b00000000 !
#42612
b00000000 !
#42675
b00000000 !
#42737
b00000000 !
#42800
b00000000 !
#42862
b00000000 !
#42925
b00000000 !
#42987
b00000000 !
#43050
b00000000 !
#43112
b00000000 !
#43175
b00000000 !
#43237
b00000000 !
#43300
b00000000 !
#43362
b00000000 !
#43425
b00000000 !
#43487
b00000000 !
#43550
b00000000 !
#43612
b00000000 !
#43675
b00000000 !
#43737
b00000000 !
#43800
b00000000 !
#43862
b00000000 !
#43925
b00000000 !
#43987
b00000000 !
#44050
b00000000 !
#44112
b00000000 !
#44175
b00000000 !
#44237
b00000000 !
#44300
b00000000 !
#44362
b00000000 !
#44425
b00000000 !
#44487
b00000000 !
#44550
b00000000 !
#44612
b00000000 !
#44675
b00000000 !
#44737
b00000000 !
#44800
b00000000 !
#44862
b00000000 !
#44925
b00000000 !
#44987
b00000000 !
#45050
b00000000 !
#45112
b00000000 !
#45175
b00000000 !
#45237
b00000000 !
#45300
b00000000 !
#45362
b00000000 !
#45425
b00000000 !
#45487
b00000000 !
#45550
b00000000 !
#45612
b00000000 !
#45675
b00000000 !
#45737
b00000000 !
#45800
b00000000 !
#45862
b00000000 !
#45925
b00000000 !
#45987
b00000000 !
#46050
b00000000 !
#46112
b00000000 !
#46175
b00000000 !
#46237
b00000000 !
#46300
b00000000 !
#46362
b00000000 !
#46425
b00000000 !
#46487
b00000000 !
#46550
b00000000 !
#46612
b00000000 !
#46675
b00000000 !
#46737
b00000000 !
#46800
b00000000 !
#46862
b00000000 !
#46925
b00000000 !
#46987
b00000000 !
#47050
b00000000 !
#47112
b00000000 !
#47175
b00000000 !
#47237
b00000000 !
#47300
b00000000 !
#47362
b00000000 !
#47425
b00000000 !
#47487
b00000000 !
#47550
b00000000 !
#47612
b00000000 !
#47675
b00000000 !
#47737
b00000000 !
#47800
b00000000 !
#47862
b00000000 !
#47925
b00000000 !
#47987
b00000000 !
#48050
b00000000 !
#48112
b00000000 !
#48175
b00000000 !
#48237
b00000000 !
#48300
b00000000 !
#48362
b00000000 !
#48425
b00000000 !
#48487
b00000000 !
#48550
b00000000 !
#48612
b00000000 !
#48675
b00000000 !
#48737
b00000000 !
#48800
b00000000 !
#48862
b00000000 !
#48925
b00000000 !
#48987
b00000000 !
#49050
b00000000 !
#49112
b00000000 !
#49175
b00000000 !
#49237
b00000000 !
#49300
b00000000 !
#49362
b00000000 !
#49425
b00000000 !
#49487
b00000000 !
#49550
b00000000 !
#49612
b00000000 !
#49675
b00000000 !
#49737
b00000000 !
#49800
b00000000 !
#49862
b00000000 !
#49925
b00000000 !
#49987
b00000000 !
#50050
b00000000 !
#50112
b00000000 !
#50175
b00000000 !
#50237
b00000000 !
#50300
b00000000 !
#50362
b00000000 !
#50425
b00000000 !
#50487
b00000000 !
#50550
b00000000 !
#50612
b00000000 !
#50675
b00000000 !
#50737
b00000000 !
#50800
b00000000 !
#50862
b00000000 !
#50925
b00000000 !
#50987
b00000000 !
#51050
b00000000 !
#51112
b00000000 !
#51175
b00000000 !
#51237
b00000000 !
#51300
b00000000 !
#51362
b00000000 !
#51425
b00000000 !
#51487
b00000000 !
#51550
b00000000 !
#51612
b00000000 !
#51675
b00000000 !
#51737
b00000000 !
#51800
b00000000 !
#51862
b00000000 !
#51925
b00000000 !
#51987
b00000000 !
#52050
b00000000 !
#52112
b00000000 !
#52175
b00000000 !
#52237
b00000000 !
#52300
b00000000 !
#52362
b00000000 !
#52425
b00000000 !
#52487
b00000000 !
#52550
b00000000 !
#52612
b00000000 !
#52675
b00000000 !
#52737
b00000000 !
#52800
b00000000 !
#52862
b00000000 !
#52925
b00000000 !
#52987
b00000000 !
#53050
b00000000 !
#53112
b00000000 !
#53175
b00000000 !
#53237
b00000000 !
#53300
b00000000 !
#53362
b00000000 !
#53425
b00000000 !
#53487
b00000000 !
#53550
b00000000 !
#53612
b00000000 !
#53675
b00000000 !
#53737
b00000000 !
#53800
b00000000 !
#53862
b00000000 !
#53925
b00000000 !
#53987
b00000000 !
#54050
b00000000 !
#54112
b00000000 !
#54175
b00000000 !
#54237
b00000000 !
#54300
b00000000 !
#54362
b00000000 !
#54425
b00000000 !
#54487
b00000000 !
#54550
b00000000 !
#54612
b00000000 !
#54675
b00000000 !
#54737
b00000000 !
#54800
b00000000 !
#54862
b00000000 !
#54925
b00000000 !
#54987
b00000000 !
#55050
b00000000 !
#55112
b00000000 !
#55175
b00000000 !
#55237
b00000000 !
#55300
b00000000 !
#55362
b00000000 !
#55425
b00000000 !
#55487
b00000000 !
#55550
b00000000 !
#55612
b00000000 !
#55675
b00000000 !
#55737
b00000000 !
#55800
b00000000 !
#55862
b00000000 !
#55925
b00000000 !
#55987
b00000000 !
#56050
b00000000 !
#56112
b00000000 !
#56175
b00000000 !
#56237
b00000000 !
#56300
b00000000 !
#56362
b00000000 !
#56425
b00000000 !
#56487
b00000000 !
#56550
b00000000 !
#56612
b00000000 !
#56675
b00000000 !
#56737
b00000000 !
#56800
b00000000 !
#56862
b00000000 !
#56925
b00000000 !
#56987
b00000000 !
#57050
b00000000 !
#57112
b00000000 !
#57175
b00000000 !
#57237
b00000000 !
#57300
b00000000 !
#57362
b00000000 !
#57425
b00000000 !
#57487
b00000000 !
#57550
b00000000 !
#57612
b00000000 !
#57675
b00000000 !
#57737
b00000000 !
#57800
b00000000 !
#57862
b00000000 !
#57925
b00000000 !
#57987
b00000000 !
#58050
b00000000 !
#58112
b00000000 !
#58175
b00000000 !
#58237
b00000000 !
#58300
b00000000 !
#58362
b00000000 !
#58425
b00000000 !
#58487
b00000000 !
#58550
b00000000 !
#58612
b00000000 !
#58675
b00000000 !
#58737
b00000000 !
#58800
b00000000 !
#58862
b00000000 !
#58925
b00000000 !
#58987
b00000000 !
#59050
b00000000 !
#59112
b00000000 !
#59175
b00000000 !
#59237
b00000000 !
#59300
b00000000 !
#59362
b00000000 !
#59425
b00000000 !
#59487
b00000000 !
#59550
b00000000 !
#59612
b00000000 !
#59675
b00000000 !
#59737
b00000000 !
#59800
b00000000 !
#59862
b00000000 !
#59925
b00000000 !
#59987
b00000000 !
#60050
b00000000 !
#60112
b00000000 !
#60175
b00000000 !
#60237
b00000000 !
#60300
b00000000 !
#60362
b00000000 !
#60425
b00000000 !
#60487
b00000000 !
#60550
b00000000 !
#60612
b00000000 !
#60675
b00000000 !
#60737
b00000000 !
#60800
b00000000 !
#60862
b00000000 !
#60925
b00000000 !
#60987
b00000000 !
#61050
b00000000 !
#61112
b00000000 !
#61175
b00000000 !
#61237
b00000000 !
#61300
b00000000 !
#61362
b00000000 !
#61425
b00000000 !
#61487
b00000000 !
#61550
b00000000 !
#61612
b00000000 !
#61675
b00000000 !
#61737
b00000000 !
#61800
b00000000 !
#61862
b00000000 !
#61925
b00000000 !
#61987
b00000000 !
#62050
b00000000 !
#62112
b00000000 !
#62175
b00000000 !
#62237
b00000000 !
#62300
b00000000 !
#62362
b00000000 !
#62425
b00000000 !
#62487
b00000000 !
#62550
b00000000 !
#62612
b00000000 !
#62675
b00000000 !
#62737
b00000000 !
#62800
b00000000 !
#62862
b00000000 !
#62925
b00000000 !
#62987
b00000000 !
#63050
b00000000 !
#63112
b00000000 !
#63175
b00000000 !
#63237
b00000000 !
#63300
b00000000 !
#63362
b00000000 !
#63425
b00000000 !
#63487
b00000000 !
#63550
b00000000 !
#63612
b00000000 !
#63675
b00000000 !
#63737
b00000000 !
#63800
b00000000 !
#63862
b00000000 !
#63925
b00000000 !
#63987
b00000000 !
#64050
b00000000 !
#64112
b00000000 !
#64175
b00000000 !
#64237
b00000000 !
#64300
b00000000 !
#64362
b00000000 !
#64425
b00000000 !
#64487
b00000000 !
#64550
b00000000 !
#64612
b00000000 !
#64675
b00000000 !
#64737
b00000000 !
#64800
b00000000 !
#64862
b00000000 !
#64925
b00000000 !
#64987
b00000000 !
#65050
b00000000 !
#65112
b00000000 !
#65175
b00000000 !
#65237
b00000000 !
#65300
b00000000 !
#65362
b00000000 !
#65425
b00000000 !
#65487
b00000000 !
#65550
b00000000 !
#65612
b00000000 !
#65675
b00000000 !
#65737
b00000000 !
#65800
b00000000 !
#65862
b00000000 !
#65925
b00000000 !
#65987
b00000000 !
#66050
b00000000 !
#66112
b00000000 !
#66175
b00000000 !
#66237
b00000000 !
#66300
b00000000 !
#66362
b00000000 !
#66425
b00000000 !
#66487
b00000000 !
#66550
b00000000 !
#66612
b00000000 !
#66675
b00000000 !
#66737
b00000000 !
#66800
b00000000 !
#66862
b00000000 !
#66925
b00000000 !
#66987
b00000000 !
#67050
b00000000 !
#67112
b00000000 !
#67175
b00000000 !
#67237
b00000000 !
#67300
b00000000 !
#67362
b00000000 !
#67425
b00000000 !
#67487
b00000000 !
#67550
b00000000 !
#67612
b00000000 !
#67675
b00000000 !
#67737
b00000000 !
#67800
b00000000 !
#67862
b00000000 !
#67925
b00000000 !
#67987
b00000000 !
#68050
b00000000 !
#68112
b00000000 !
#68175
b00000000 !
#68237
b00000000 !
#68300
b00000000 !
#68362
b00000000 !
#68425
b00000000 !
#68487
b00000000 !
#68550
b00000000 !
#68612
b00000000 !
#68675
b00000000 !
#68737
b00000000 !
#68800
b00000000 !
#68862
b00000000 !
#68925
b00000000 !
#68987
b00000000 !
#69050
b00000000 !
#69112
b00000000 !
#69175
b00000000 !
#69237
b00000000 !
#69300
b00000000 !
#69362
b00000000 !
#69425
b00000000 !
#69487
b00000000 !
#69550
b00000000 !
#69612
b00000000 !
#69675
b00000000 !
#69737
b00000000 !
#69800
b00000000 !
#69862
b00000000 !
#69925
b00000000 !
#69987
b00000000 !
#70050
b00000000 !
#70112
b00000000 !
#70175
b00000000 !
#70237
b00000000 !
#70300
b00000000 !
#70362
b00000000 !
#70425
b00000000 !
#70487
b00000000 !
#70550
b00000000 !
#70612
b00000000 !
#70675
b00000000 !
#70737
b00000000 !
#70800
b00000000 !
#70862
b00000000 !
#70925
b00000000 !
#70987
b00000000 !
#71050
b00000000 !
#71112
b00000000 !
#71175
b00000000 !
#71237
b00000000 !
#71300
b00000000 !
#71362
b00000000 !
#71425
b00000000 !
#71487
b00000000 !
#71550
b00000000 !
#71612
b00000000 !
#71675
b00000000 !
#71737
b00000000 !
#71800
b00000000 !
#71862
b00000000 !
#71925
b00000000 !
#71987
b00000000 !
#72050
b00000000 !
#72112
b00000000 !
#72175
b00000000 !
#72237
b00000000 !
#72300
b00000000 !
#72362
b00000000 !
#72425
b00000000 !
#72487
b00000000 !
#72550
b00000000 !
#72612
b00000000 !
#72675
b00000000 !
#72737
b00000000 !
#72800
b00000000 !
#72862
b00000000 !
#72925
b00000000 !
#72987
b00000000 !
#73050
b00000000 !
#73112
b00000000 !
#73175
b00000000 !
#73237
b00000000 !
#73300
b00000000 !
#73362
b00000000 !
#73425
b00000000 !
#73487
b00000000 !
#73550
b00000000 !
#73612
b00000000 !
#73675
b00000000 !
#73737
b00000000 !
#73800
b00000000 !
#73862
b00000000 !
#73925
b00000000 !
#73987
b00000000 !
#74050
b00000000 !
#74112
b00000000 !
#74175
b00000000 !
#74237
b00000000 !
#74300
b00000000 !
#74362
b00000000 !
#74425
b00000000 !
#74487
b00000000 !
#74550
b00000000 !
#74612
b00000000 !
#74675
b00000000 !
#74737
b00000000 !
#74800
b00000000 !
#74862
b00000000 !
#74925
b00000000 !
#74987
b00000000 !
#75050
b00000000 !
#75112
b00000000 !
#75175
b00000000 !
#75237
b00000000 !
#75300
b00000000 !
#75362
b00000000 !
#75425
b00000000 !
#75487
b00000000 !
#75550
b00000000 !
#75612
b00000000 !
#75675
b00000000 !
#75737
b00000000 !
#75800
b00000000 !
#75862
b00000000 !
#75925
b00000000 !
#75987
b00000000 !
#76050
b00000000 !
#76112
b00000000 !
#76175
b00000000 !
#76237
b00000000 !
#76300
b00000000 !
#76362
b00000000 !
#76425
b00000000 !
#76487
b00000000 !
#76550
b00000000 !
#76612
b00000000 !
#76675
b00000000 !
#76737
b00000000 !
#76800
b00000000 !
#76862
b00000000 !
#76925
b00000000 !
#76987
b00000000 !
#77050
b00000000 !
#77112
b00000000 !
#77175
b00000000 !
#77237
b00000000 !
#77300
b00000000 !
#77362
b00000000 !
#77425
b00000000 !
#77487
b00000000 !
#77550
b00000000 !
#77612
b00000000 !
#77675
b00000000 !
#77737
b00000000 !
#77800
b00000000 !
#77862
b00000000 !
#77925
b00000000 !
#77987
b00000000 !
#78050
b00000000 !
#78112
b00000000 !
#78175
b00000000 !
#78237
b00000000 !
#78300
b00000000 !
#78362
b00000000 !
#78425
b00000000 !
#78487
b00000000 !
#78550
b00000000 !
#78612
b00000000 !
#78675
b00000000 !
#78737
b00000000 !
#78800
b00000000 !
#78862
b00000000 !
#78925
b00000000 !
#78987
b00000000 !
#79050
b00000000 !
#79112
b00000000 !
#79175
b00000000 !
#79237
b00000000 !
#79300
b00000000 !
#79362
b00000000 !
#79425
b00000000 !
#79487
b00000000 !
#79550
b00000000 !
#79612
b00000000 !
#79675
b00000000 !
#79737
b00000000 !
#79800
b00000000 !
#79862
b00000000 !
#79925
b00000000 !
#79987
b00000000 !
#80050
b00000000 !
#80112
b00000000 !
#80175
b00000000 !
#80237
b00000000 !
#80300
b00000000 !
#80362
b00000000 !
#80425
b00000000 !
#80487
b00000000 !
#80550
b00000000 !
#80612
b00000000 !
#80675
b00000000 !
#80737
b00000000 !
#80800
b00000000 !
#80862
b00000000 !
#80925
b00000000 !
#80987
b00000000 !
#81050
b00000000 !
#81112
b00000000 !
#81175
b00000000 !
#81237
b00000000 !
#81300
b00000000 !
#81362
b00000000 !
#81425
b00000000 !
#81487
b00000000 !
#81550
b00000000 !
#81612
b00000000 !
#81675
b00000000 !
#81737
b00000000 !
#81800
b00000000 !
#81862
b00000000 !
#81925
b00000000 !
#81987
b00000000 !
#82050
b00000000 !
#82112
b00000000 !
#82175
b00000000 !
#82237
b00000000 !
#82300
b00000000 !
#82362
b00000000 !
#82425
b00000000 !
#82487
b00000000 !
#82550
b00000000 !
#82612
b00000000 !
#82675
b00000000 !
#82737
b00000000 !
#82800
b00000000 !
#82862
b00000000 !
#82925
b00000000 !
#82987
b00000000 !
#83050
b00000000 !
#83112
b00000000 !
#83175
b00000000 !
#83237
b00000000 !
#83300
b00000000 !
#83362
b00000000 !
#83425
b00000000 !
#83487
b00000000 !
#83550
b00000000 !
#83612
b00000000 !
#83675
b00000000 !
#83737
b00000000 !
#83800
b00000000 !
#83862
b00000000 !
#83925
b00000000 !
#83987
b00000000 !
#84050
b00000000 !
#84112
b00000000 !
#84175
b00000000 !
#84237
b00000000 !
#84300
b00000000 !
#84362
b00000000 !
#84425
b00000000 !
#84487
b00000000 !
#84550
b00000000 !
#84612
b00000000 !
#84675
b00000000 !
#84737
b00000000 !
#84800
b00000000 !
#84862
b00000000 !
#84925
b00000000 !
#84987
b00000000 !
#85050
b00000000 !
#85112
b00000000 !
#85175
b00000000 !
#85237
b00000000 !
#85300
b00000000 !
#85362
b00000000 !
#85425
b00000000 !
#85487
b00000000 !
#85550
b00000000 !
#85612
b00000000 !
#85675
b00000000 !
#85737
b00000000 !
#85800
b00000000 !
#85862
b00000000 !
#85925
b00000000 !
#85987
b00000000 !
#86050
b00000000 !
#86112
b00000000 !
#86175
b00000000 !
#86237
b00000000 !
#86300
b00000000 !
#86362
b00000000 !
#86425
b00000000 !
#86487
b00000000 !
#86550
b00000000 !
#86612
b00000000 !
#86675
b00000000 !
#86737
b00000000 !
#86800
b00000000 !
#86862
b00000000 !
#86925
b00000000 !
#86987
b00000000 !
