Code/gtkwave_trace.vcd
$timescale 10ns $end
$scope module logic $end
$var wire 8 ! UCSR0A $end
$var wire 8 " UCSR0B $end
$var wire 8 # UCSR0C $end
$var wire 8 $ UBRR0H $end
$var wire 8 % UBRR0L $end
$var wire 1 & UDRE0 $end
$var wire 8 ' UDR0 $end
$var wire 8 ( PORTE $end
$var wire 1 ) PE1 $end
$upscope $end
$enddefinitions $end
$dumpvars
bxxxxxxxx !
bxxxxxxxx "
bxxxxxxxx #
bxxxxxxxx $
bxxxxxxxx %
x&
bxxxxxxxx '
bxxxxxxxx (
x)
$end
#1987
b00000000 !
0&
#2012
b00000000 $
#2050
b00110011 %
#2087
b00011000 "
#2125
b00000110 #
#2237
b00100000 !
1&
#2312
b11111111 '
#2400
b00000000 !
0&
#2462
b00000000 !
#2525
b00000000 !
#2587
b00000000 !
#2650
b00000000 !
#2712
b00000000 !
#2775
b00000000 !
#2837
b00000000 !
#2900
b00000000 !
#2962
b00000000 !
#3025
b00000000 !
#3087
b00000000 !
#3150
b00000000 !
#3212
b00000000 !
#3275
b00000000 !
#3337
b00000000 !
#3400
b00000000 !
#3462
b00000000 !
#3525
b00000000 !
#3587
b00000000 !
#3650
b00000000 !
#3712
b00000000 !
#3775
b00000000 !
#3837
b00000000 !
#3900
b00000000 !
#3962
b00000000 !
#4025
b00000000 !
#4087
b00000000 !
#4150
b00000000 !
#4212
b00000000 !
#4275
b00000000 !
#4337
b00000000 !
#4400
b00000000 !
#4462
b00000000 !
#4525
b00000000 !
#4587
b00000000 !
#4650
b00000000 !
#4712
b00000000 !
#4775
b00000000 !
#4837
b00000000 !
#4900
b00000000 !
#4962
b00000000 !
#5025
b00000000 !
#5087
b00000000 !
#5150
b00000000 !
#5212
b00000000 !
#5275
b00000000 !
#5337
b00000000 !
#5400
b00000000 !
#5462
b00000000 !
#5525
b00000000 !
#5587
b00000000 !
#5650
b00000000 !
#5712
b00000000 !
#5775
b00000000 !
#5837
b00000000 !
#5900
b00000000 !
#5962
b00000000 !
#6025
b00000000 !
#6087
b00000000 !
#6150
b00000000 !
#6212
b00000000 !
#6275
b00000000 !
#6337
b00000000 !
#6400
b00000000 !
#6462
b00000000 !
#6525
b00000000 !
#6587
b00000000 !
#6650
b00000000 !
#6712
b00000000 !
#6775
b00000000 !
#6837
b00000000 !
#6900
b00000000 !
#6962
b00000000 !
#7025
b00000000 !
#7087
b00000000 !
#7150
b00000000 !
#7212
b00000000 !
#7275
b00000000 !
#7337
b00000000 !
#7400
b00000000 !
#7462
b00000000 !
#7525
b00000000 !
#7587
b00000000 !
#7650
b00000000 !
#7712
b00000000 !
#7775
b00000000 !
#7837
b00000000 !
#7900
b00000000 !
#7962
b00000000 !
#8025
b00000000 !
#8087
b00000000 !
#8150
b00000000 !
#8212
b00000000 !
#8275
b00000000 !
#8337
b00000000 !
#8400
b00000000 !
#8462
b00000000 !
#8525
b00000000 !
#8587
b00000000 !
#8650
b00000000 !
#8712
b00000000 !
#8775
b00000000 !
#8837
b00000000 !
#8900
b00000000 !
#8962
b00000000 !
#9025
b00000000 !
#9087
b00000000 !
#9150
b00000000 !
#9212
b00000000 !
#9275
b00000000 !
#9337
b00000000 !
#9400
b00000000 !
#9462
b00000000 !
#9525
b00000000 !
#9587
b00000000 !
#9650
b00000000 !
#9712
b00000000 !
#9775
b00000000 !
#9837
b00000000 !
#9900
b00000000 !
#9962
b00000000 !
#10025
b00000000 !
#10087
b00000000 !
#10150
b00000000 !
#10212
b00000000 !
#10275
b00000000 !
#10337
b00000000 !
#10400
b00000000 !
#10462
b00000000 !
#10525
b00000000 !
#10587
b00000000 !
#10650
b00000000 !
#10712
b00000000 !
#10775
b00000000 !
#10837
b00000000 !
#10900
b00000000 !
#10962
b00000000 !
#11025
b00000000 !
#11087
b00000000 !
#11150
b00000000 !
#11212
b00000000 !
#11275
b00000000 !
#11337
b00000000 !
#11400
b00000000 !
#11462
b00000000 !
#11525
b00000000 !
#11587
b00000000 !
#11650
b00000000 !
#11712
b00000000 !
#11775
b00000000 !
#11837
b00000000 !
#11900
b00000000 !
#11962
b00000000 !
#12025
b00000000 !
#12087
b00000000 !
#12150
b00000000 !
#12212
b00000000 !
#12275
b00000000 !
#12337
b00000000 !
#12400
b00000000 !
#12462
b00000000 !
#12525
b00000000 !
#12587
b00000000 !
#12650
b00000000 !
#12712
b00000000 !
#12775
b00000000 !
#12837
b00000000 !
#12900
b00000000 !
#12962
b00000000 !
#13025
b00000000 !
#13087
b00000000 !
#13150
b00000000 !
#13212
b00000000 !
#13275
b00000000 !
#13337
b00000000 !
#13400
b00000000 !
#13462
b00000000 !
#13525
b00000000 !
#13587
b00000000 !
#13650
b00000000 !
#13712
b00000000 !
#13775
b00000000 !
#13837
b00000000 !
#13900
b00000000 !
#13962
b00000000 !
#14025
b00000000 !
#14087
b00000000 !
#14150
b00000000 !
#14212
b00000000 !
#14275
b00000000 !
#14337
b00000000 !
#14400
b00000000 !
#14462
b00000000 !
#14525
b00000000 !
#14587
b00000000 !
#14650
b00000000 !
#14712
b00000000 !
#14775
b00000000 !
#14837
b00000000 !
#14900
b00000000 !
#14962
b00000000 !
#15025
b00000000 !
#15087
b00000000 !
#15150
b00000000 !
#15212
b00000000 !
#15275
b00000000 !
#15337
b00000000 !
#15400
b00000000 !
#15462
b00000000 !
#15525
b00000000 !
#15587
b00000000 !
#15650
b00000000 !
#15712
b00000000 !
#15775
b00000000 !
#15837
b00000000 !
#15900
b00000000 !
#15962
b00000000 !
#16025
b00000000 !
#16087
b00000000 !
#16150
b00000000 !
#16212
b00000000 !
#16275
b00000000 !
#16337
b00000000 !
#16400
b00000000 !
#16462
b00000000 !
#16525
b00000000 !
#16587
b00000000 !
#16650
b00000000 !
#16712
b00000000 !
#16775
b00000000 !
#16837
b00000000 !
#16900
b00000000 !
#16962
b00000000 !
#17025
b00000000 !
#17087
b00000000 !
#17150
b00000000 !
#17212
b00000000 !
#17275
b00000000 !
#17337
b00000000 !
#17400
b00000000 !
#17462
b00000000 !
#17525
b00000000 !
#17587
b00000000 !
#17650
b00000000 !
#17712
b00000000 !
#17775
b00000000 !
#17837
b00000000 !
#17900
b00000000 !
#17962
b00000000 !
#18025
b00000000 !
#18087
b00000000 !
#18150
b00000000 !
#18212
b00000000 !
#18275
b00000000 !
#18337
b00000000 !
#18400
b00000000 !
#18462
b00000000 !
#18525
b00000000 !
#18587
b00000000 !
#18650
b00000000 !
#18712
b00000000 !
#18775
b00000000 !
#18837
b00000000 !
#18900
b00000000 !
#18962
b00000000 !
#19025
b00000000 !
#19087
b00000000 !
#19150
b00000000 !
#19212
b00000000 !
#19275
b00000000 !
#19337
b00000000 !
#19400
b00000000 !
#19462
b00000000 !
#19525
b00000000 !
#19587
b00000000 !
#19650
b00000000 !
#19712
b00000000 !
#19775
b00000000 !
#19837
b00000000 !
#19900
b00000000 !
#19962
b00000000 !
#20025
b00000000 !
#20087
b00000000 !
#20150
b00000000 !
#20212
b00000000 !
#20275
b00000000 !
#20337
b00000000 !
#20400
b00000000 !
#20462
b00000000 !
#20525
b00000000 !
#20587
b00000000 !
#20650
b00000000 !
#20712
b00000000 !
#20775
b00000000 !
#20837
b00000000 !
#20900
b00000000 !
#20962
b00000000 !
#21025
b00000000 !
#21087
b00000000 !
#21150
b00000000 !
#21212
b00000000 !
#21275
b00000000 !
#21337
b00000000 !
#21400
b00000000 !
#21462
b00000000 !
#21525
b00000000 !
#21587
b00000000 !
#21650
b00000000 !
#21712
b00000000 !
#21775
b00000000 !
#21837
b00000000 !
#21900
b00000000 !
#21962
b00000000 !
#22025
b00000000 !
#22087
b00000000 !
#22150
b00000000 !
#22212
b00000000 !
#22275
b00000000 !
#22337
b00000000 !
#22400
b00000000 !
#22462
b00000000 !
#22525
b00000000 !
#22587
b00000000 !
#22650
b00000000 !
#22712
b00000000 !
#22775
b00000000 !
#22837
b00000000 !
#22900
b00000000 !
#22962
b00000000 !
#23025
b00000000 !
#23087
b00000000 !
#23150
b00000000 !
#23212
b00000000 !
#23275
b00000000 !
#23337
b00000000 !
#23400
b00000000 !
#23462
b00000000 !
#23525
b00000000 !
#23587
b00000000 !
#23650
b00000000 !
#23712
b00000000 !
#23775
b00000000 !
#23837
b00000000 !
#23900
b00000000 !
#23962
b00000000 !
#24025
b00000000 !
#24087
b00000000 !
#24150
b00000000 !
#24212
b00000000 !
#24275
b00000000 !
#24337
b00000000 !
#24400
b00000000 !
#24462
b00000000 !
#24525
b00000000 !
#24587
b00000000 !
#24650
b00000000 !
#24712
b00000000 !
#24775
b00000000 !
#24837
b00000000 !
#24900
b00000000 !
#24962
b00000000 !
#25025
b00000000 !
#25087
b00000000 !
#25150
b00000000 !
#25212
b00000000 !
#25275
b00000000 !
#25337
b00000000 !
#25400
b00000000 !
#25462
b00000000 !
#25525
b00000000 !
#25587
b00000000 !
#25650
b00000000 !
#25712
b00000000 !
#25775
b00000000 !
#25837
b00000000 !
#25900
b00000000 !
#25962
b00000000 !
#26025
b00000000 !
#26087
b00000000 !
#26150
b00000000 !
#26212
b00000000 !
#26275
b00000000 !
#26337
b00000000 !
#26400
b00000000 !
#26462
b00000000 !
#26525
b00000000 !
#26587
b00000000 !
#26650
b00000000 !
#26712
b00000000 !
#26775
b00000000 !
#26837
b00000000 !
#26900
b00000000 !
#26962
b00000000 !
#27025
b00000000 !
#27087
b00000000 !
#27150
b00000000 !
#27212
b00000000 !
#27275
b00000000 !
#27337
b00000000 !
#27400
b00000000 !
#27462
b00000000 !
#27525
b00000000 !
#27587
b00000000 !
#27650
b00000000 !
#27712
b00000000 !
#27775
b00000000 !
#27837
b00000000 !
#27900
b00000000 !
#27962
b00000000 !
#28025
b00000000 !
#28087
b00000000 !
#28150
b00000000 !
#28212
b00000000 !
#28275
b00000000 !
#28337
b00000000 !
#28400
b00000000 !
#28462
b00000000 !
#28525
b00000000 !
#28587
b00000000 !
#28650
b00000000 !
#28712
b00000000 !
#28775
b00000000 !
#28837
b00000000 !
#28900
b00000000 !
#28962
b00000000 !
#29025
b00000000 !
#29087
b00000000 !
#29150
b00000000 !
#29212
b00000000 !
#29275
b00000000 !
#29337
b00000000 !
#29400
b00000000 !
#29462
b00000000 !
#29525
b00000000 !
#29587
b00000000 !
#29650
b00000000 !
#29712
b00000000 !
#29775
b00000000 !
#29837
b00000000 !
#29900
b00000000 !
#29962
b00000000 !
#30025
b00000000 !
#30087
b00000000 !
#30150
b00000000 !
#30212
b00000000 !
#30275
b00000000 !
#30337
b00000000 !
#30400
b00000000 !
#30462
b00000000 !
#30525
b00000000 !
#30587
b00000000 !
#30650
b00000000 !
#30712
b00000000 !
#30775
b00000000 !
#30837
b00000000 !
#30900
b00000000 !
#30962
b00000000 !
#31025
b00000000 !
#31087
b00000000 !
#31150
b00000000 !
#31212
b00000000 !
#31275
b00000000 !
#31337
b00000000 !
#31400
b00000000 !
#31462
b00000000 !
#31525
b00000000 !
#31587
b00000000 !
#31650
b00000000 !
#31712
b00000000 !
#31775
b00000000 !
#31837
b00000000 !
#31900
b00000000 !
#31962
b00000000 !
#32025
b00000000 !
#32087
b00000000 !
#32150
b00000000 !
#32212
b00000000 !
#32275
b00000000 !
#32337
b00000000 !
#32400
b00000000 !
#32462
b00000000 !
#32525
b00000000 !
#32587
b00000000 !
#32650
b00000000 !
#32712
b00000000 !
#32775
b00000000 !
#32837
b00000000 !
#32900
b00000000 !
#32962
b00000000 !
#33025
b00000000 !
#33087
b00000000 !
#33150
b00000000 !
#33212
b00000000 !
#33275
b00000000 !
#33337
b00000000 !
#33400
b00000000 !
#33462
b00000000 !
#33525
b00000000 !
#33587
b00000000 !
#33650
b00000000 !
#33712
b00000000 !
#33775
b00000000 !
#33837
b00000000 !
#33900
b00000000 !
#33962
b00000000 !
#34025
b00000000 !
#34087
b00000000 !
#34150
b00000000 !
#34212
b00000000 !
#34275
b00000000 !
#34337
b00000000 !
#34400
b00000000 !
#34462
b00000000 !
#34525
b00000000 !
#34587
b00000000 !
#34650
b00000000 !
#34712
b00000000 !
#34775
b00000000 !
#34837
b00000000 !
#34900
b00000000 !
#34962
b00000000 !
#35025
b00000000 !
#35087
b00000000 !
#35150
b00000000 !
#35212
b00000000 !
#35275
b00000000 !
#35337
b00000000 !
#35400
b00000000 !
#35462
b00000000 !
#35525
b00000000 !
#35587
b00000000 !
#35650
b00000000 !
#35712
b00000000 !
#35775
b00000000 !
#35837
b00000000 !
#35900
b00000000 !
#35962
b00000000 !
#36025
b00000000 !
#36087
b00000000 !
#36150
b00000000 !
#36212
b00000000 !
#36275
b00000000 !
#36337
b00000000 !
#36400
b00000000 !
#36462
b00000000 !
#36525
b00000000 !
#36587
b00000000 !
#36650
b00000000 !
#36712
b00000000 !
#36775
b00000000 !
#36837
b00000000 !
#36900
b00000000 !
#36962
b00000000 !
#37025
b00000000 !
#37087
b00000000 !
#37150
b00000000 !
#37212
b00000000 !
#37275
b00000000 !
#37337
b00000000 !
#37400
b00000000 !
#37462
b00000000 !
#37525
b00000000 !
#37587
b00000000 !
#37650
b00000000 !
#37712
b00000000 !
#37775
b00000000 !
#37837
b00000000 !
#37900
b00000000 !
#37962
b00000000 !
#38025
b00000000 !
#38087
b00000000 !
#38150
b00000000 !
#38212
b00000000 !
#38275
b00000000 !
#38337
b00000000 !
#38400
b00000000 !
#38462
b00000000 !
#38525
b00000000 !
#38587
b00000000 !
#38650
b00000000 !
#38712
b00000000 !
#38775
b00000000 !
#38837
b00000000 !
#38900
b00000000 !
#38962
b00000000 !
#39025
b00000000 !
#39087
b00000000 !
#39150
b00000000 !
#39212
b00000000 !
#39275
b00000000 !
#39337
b00000000 !
#39400
b00000000 !
#39462
b00000000 !
#39525
b00000000 !
#39587
b00000000 !
#39650
b00000000 !
#39712
b00000000 !
#39775
b00000000 !
#39837
b00000000 !
#39900
b00000000 !
#39962
b00000000 !
#40025
b00000000 !
#40087
b00000000 !
#40150
b00000000 !
#40212
b00000000 !
#40275
b00000000 !
#40337
b00000000 !
#40400
b00000000 !
#40462
b00000000 !
#40525
b00000000 !
#40587
b00000000 !
#40650
b00000000 !
#40712
b00000000 !
#40775
b00000000 !
#40837
b00000000 !
#40900
b00000000 !
#40962
b00000000 !
#41025
b00000000 !
#41087
b00000000 !
#41150
b00000000 !
#41212
b00000000 !
#41275
b00000000 !
#41337
b00000000 !
#41400
b00000000 !
#41462
b00000000 !
#41525
b00000000 !
#41587
b00000000 !
#41650
b00000000 !
#41712
b00000000 !
#41775
b00000000 !
#41837
b00000000 !
#41900
b00000000 !
#41962
b00000000 !
#42025
b00000000 !
#42087
b00000000 !
#42150
b00000000 !
#42212
b00000000 !
#42275
b00000000 !
#42337
b00000000 !
#42400
b00000000 !
#42462
b00000000 !
#42525
b00000000 !
#42587
b00000000 !
#42650
b00000000 !
#42712
b00000000 !
#42775
b00000000 !
#42837
b00000000 !
#42900
b00000000 !
#42962
b00000000 !
#43025
b00000000 !
#43087
b00000000 !
#43150
b00000000 !
#43212
b00000000 !
#43275
b00000000 !
#43337
b00000000 !
#43400
b00000000 !
#43462
b00000000 !
#43525
b00000000 !
#43587
b00000000 !
#43650
b00000000 !
#43712
b00000000 !
#43775
b00000000 !
#43837
b00000000 !
#43900
b00000000 !
#43962
b00000000 !
#44025
b00000000 !
#44087
b00000000 !
#44150
b00000000 !
#44212
b00000000 !
#44275
b00000000 !
#44337
b00000000 !
#44400
b00000000 !
#44462
b00000000 !
#44525
b00000000 !
#44587
b00000000 !
#44650
b00000000 !
#44712
b00000000 !
#44775
b00000000 !
#44837
b00000000 !
#44900
b00000000 !
#44962
b00000000 !
#45025
b00000000 !
#45087
b00000000 !
#45150
b00000000 !
#45212
b00000000 !
#45275
b00000000 !
#45337
b00000000 !
#45400
b00000000 !
#45462
b00000000 !
#45525
b00000000 !
#45587
b00000000 !
#45650
b00000000 !
#45712
b00000000 !
#45775
b00000000 !
#45837
b00000000 !
#45900
b00000000 !
#45962
b00000000 !
#46025
b00000000 !
#46087
b00000000 !
#46150
b00000000 !
#46212
b00000000 !
#46275
b00000000 !
#46337
b00000000 !
#46400
b00000000 !
#46462
b00000000 !
#46525
b00000000 !
#46587
b00000000 !
#46650
b00000000 !
#46712
b00000000 !
#46775
b00000000 !
#46837
b00000000 !
#46900
b00000000 !
#46962
b00000000 !
#47025
b00000000 !
#47087
b00000000 !
#47150
b00000000 !
#47212
b00000000 !
#47275
b00000000 !
#47337
b00000000 !
#47400
b00000000 !
#47462
b00000000 !
#47525
b00000000 !
#47587
b00000000 !
#47650
b00000000 !
#47712
b00000000 !
#47775
b00000000 !
#47837
b00000000 !
#47900
b00000000 !
#47962
b00000000 !
#48025
b00000000 !
#48087
b00000000 !
#48150
b00000000 !
#48212
b00000000 !
#48275
b00000000 !
#48337
b00000000 !
#48400
b00000000 !
#48462
b00000000 !
#48525
b00000000 !
#48587
b00000000 !
#48650
b00000000 !
#48712
b00000000 !
#48775
b00000000 !
#48837
b00000000 !
#48900
b00000000 !
#48962
b00000000 !
#49025
b00000000 !
#49087
b00000000 !
#49150
b00000000 !
#49212
b00000000 !
#49275
b00000000 !
#49337
b00000000 !
#49400
b00000000 !
#49462
b00000000 !
#49525
b00000000 !
#49587
b00000000 !
#49650
b00000000 !
#49712
b00000000 !
#49775
b00000000 !
#49837
b00000000 !
#49900
b00000000 !
#49962
b00000000 !
#50025
b00000000 !
#50087
b00000000 !
#50150
b00000000 !
#50212
b00000000 !
#50275
b00000000 !
#50337
b00000000 !
#50400
b00000000 !
#50462
b00000000 !
#50525
b00000000 !
#50587
b00000000 !
#50650
b00000000 !
#50712
b00000000 !
#50775
b00000000 !
#50837
b00000000 !
#50900
b00000000 !
#50962
b00000000 !
#51025
b00000000 !
#51087
b00000000 !
#51150
b00000000 !
#51212
b00000000 !
#51275
b00000000 !
#51337
b00000000 !
#51400
b00000000 !
#51462
b00000000 !
#51525
b00000000 !
#51587
b00000000 !
#51650
b00000000 !
#51712
b00000000 !
#51775
b00000000 !
#51837
b00000000 !
#51900
b00000000 !
#51962
b00000000 !
#52025
b00000000 !
#52087
b00000000 !
#52150
b00000000 !
#52212
b00000000 !
#52275
b00000000 !
#52337
b00000000 !
#52400
b00000000 !
#52462
b00000000 !
#52525
b00000000 !
#52587
b00000000 !
#52650
b00000000 !
#52712
b00000000 !
#52775
b00000000 !
#52837
b00000000 !
#52900
b00000000 !
#52962
b00000000 !
#53025
b00000000 !
#53087
b00000000 !
#53150
b00000000 !
#53212
b00000000 !
#53275
b00000000 !
#53337
b00000000 !
#53400
b00000000 !
#53462
b00000000 !
#53525
b00000000 !
#53587
b00000000 !
#53650
b00000000 !
#53712
b00000000 !
#53775
b00000000 !
#53837
b00000000 !
#53900
b00000000 !
#53962
b00000000 !
#54025
b00000000 !
#54087
b00000000 !
#54150
b00000000 !
#54212
b00000000 !
#54275
b00000000 !
#54337
b00000000 !
#54400
b00000000 !
#54462
b00000000 !
#54525
b00000000 !
#54587
b00000000 !
#54650
b00000000 !
#54712
b00000000 !
#54775
b00000000 !
#54837
b00000000 !
#54900
b00000000 !
#54962
b00000000 !
#55025
b00000000 !
#55087
b00000000 !
#55150
b00000000 !
#55212
b00000000 !
#55275
b00000000 !
#55337
b00000000 !
#55400
b00000000 !
#55462
b00000000 !
#55525
b00000000 !
#55587
b00000000 !
#55650
b00000000 !
#55712
b00000000 !
#55775
b00000000 !
#55837
b00000000 !
#55900
b00000000 !
#55962
b00000000 !
#56025
b00000000 !
#56087
b00000000 !
#56150
b00000000 !
#56212
b00000000 !
#56275
b00000000 !
#56337
b00000000 !
#56400
b00000000 !
#56462
b00000000 !
#56525
b00000000 !
#56587
b00000000 !
#56650
b00000000 !
#56712
b00000000 !
#56775
b00000000 !
#56837
b00000000 !
#56900
b00000000 !
#56962
b00000000 !
#57025
b00000000 !
#57087
b00000000 !
#57150
b00000000 !
#57212
b00000000 !
#57275
b00000000 !
#57337
b00000000 !
#57400
b00000000 !
#57462
b00000000 !
#57525
b00000000 !
#57587
b00000000 !
#57650
b00000000 !
#57712
b00000000 !
#57775
b00000000 !
#57837
b00000000 !
#57900
b00000000 !
#57962
b00000000 !
#58025
b00000000 !
#58087
b00000000 !
#58150
b00000000 !
#58212
b00000000 !
#58275
b00000000 !
#58337
b00000000 !
#58400
b00000000 !
#58462
b00000000 !
#58525
b00000000 !
#58587
b00000000 !
#58650
b00000000 !
#58712
b00000000 !
#58775
b00000000 !
#58837
b00000000 !
#58900
b00000000 !
#58962
b00000000 !
#59025
b00000000 !
#59087
b00000000 !
#59150
b00000000 !
#59212
b00000000 !
#59275
b00000000 !
#59337
b00000000 !
#59400
b00000000 !
#59462
b00000000 !
#59525
b00000000 !
#59587
b00000000 !
#59650
b00000000 !
#59712
b00000000 !
#59775
b00000000 !
#59837
b00000000 !
#59900
b00000000 !
#59962
b00000000 !
#60025
b00000000 !
#60087
b00000000 !
#60150
b00000000 !
#60212
b00000000 !
#60275
b00000000 !
#60337
b00000000 !
#60400
b00000000 !
#60462
b00000000 !
#60525
b00000000 !
#60587
b00000000 !
#60650
b00000000 !
#60712
b00000000 !
#60775
b00000000 !
#60837
b00000000 !
#60900
b00000000 !
#60962
b00000000 !
#61025
b00000000 !
#61087
b00000000 !
#61150
b00000000 !
#61212
b00000000 !
#61275
b00000000 !
#61337
b00000000 !
#61400
b00000000 !
#61462
b00000000 !
#61525
b00000000 !
#61587
b00000000 !
#61650
b00000000 !
#61712
b00000000 !
#61775
b00000000 !
#61837
b00000000 !
#61900
b00000000 !
#61962
b00000000 !
#62025
b00000000 !
#62087
b00000000 !
#62150
b00000000 !
#62212
b00000000 !
#62275
b00000000 !
#62337
b00000000 !
#62400
b00000000 !
#62462
b00000000 !
#62525
b00000000 !
#62587
b00000000 !
#62650
b00000000 !
#62712
b00000000 !
#62775
b00000000 !
#62837
b00000000 !
#62900
b00000000 !
#62962
b00000000 !
#63025
b00000000 !
#63087
b00000000 !
#63150
b00000000 !
#63212
b00000000 !
#63275
b00000000 !
#63337
b00000000 !
#63400
b00000000 !
#63462
b00000000 !
#63525
b00000000 !
#63587
b00000000 !
#63650
b00000000 !
#63712
b00000000 !
#63775
b00000000 !
#63837
b00000000 !
#63900
b00000000 !
#63962
b00000000 !
#64025
b00000000 !
#64087
b00000000 !
#64150
b00000000 !
#64212
b00000000 !
#64275
b00000000 !
#64337
b00000000 !
#64400
b00000000 !
#64462
b00000000 !
#64525
b00000000 !
#64587
b00000000 !
#64650
b00000000 !
#64712
b00000000 !
#64775
b00000000 !
#64837
b00000000 !
#64900
b00000000 !
#64962
b00000000 !
#65025
b00000000 !
#65087
b00000000 !
#65150
b00000000 !
#65212
b00000000 !
#65275
b00000000 !
#65337
b00000000 !
#65400
b00000000 !
#65462
b00000000 !
#65525
b00000000 !
#65587
b00000000 !
#65650
b00000000 !
#65712
b00000000 !
#65775
b00000000 !
#65837
b00000000 !
#65900
b00000000 !
#65962
b00000000 !
#66025
b00000000 !
#66087
b00000000 !
#66150
b00000000 !
#66212
b00000000 !
#66275
b00000000 !
#66337
b00000000 !
#66400
b00000000 !
#66462
b00000000 !
#66525
b00000000 !
#66587
b00000000 !
#66650
b00000000 !
#66712
b00000000 !
#66775
b00000000 !
#66837
b00000000 !
#66900
b00000000 !
#66962
b00000000 !
#67025
b00000000 !
#67087
b00000000 !
#67150
b00000000 !
#67212
b00000000 !
#67275
b00000000 !
#67337
b00000000 !
#67400
b00000000 !
#67462
b00000000 !
#67525
b00000000 !
#67587
b00000000 !
#67650
b00000000 !
#67712
b00000000 !
#67775
b00000000 !
#67837
b00000000 !
#67900
b00000000 !
#67962
b00000000 !
#68025
b00000000 !
#68087
b00000000 !
#68150
b00000000 !
#68212
b00000000 !
#68275
b00000000 !
#68337
b00000000 !
#68400
b00000000 !
#68462
b00000000 !
#68525
b00000000 !
#68587
b00000000 !
#68650
b00000000 !
#68712
b00000000 !
#68775
b00000000 !
#68837
b00000000 !
#68900
b00000000 !
#68962
b00000000 !
#69025
b00000000 !
#69087
b00000000 !
#69150
b00000000 !
#69212
b00000000 !
#69275
b00000000 !
#69337
b00000000 !
#69400
b00000000 !
#69462
b00000000 !
#69525
b00000000 !
#69587
b00000000 !
#69650
b00000000 !
#69712
b00000000 !
#69775
b00000000 !
#69837
b00000000 !
#69900
b00000000 !
#69962
b00000000 !
#70025
b00000000 !
#70087
b00000000 !
#70150
b00000000 !
#70212
b00000000 !
#70275
b00000000 !
#70337
b00000000 !
#70400
b00000000 !
#70462
b00000000 !
#70525
b00000000 !
#70587
b00000000 !
#70650
b00000000 !
#70712
b00000000 !
#70775
b00000000 !
#70837
b00000000 !
#70900
b00000000 !
#70962
b00000000 !
#71025
b00000000 !
#71087
b00000000 !
#71150
b00000000 !
#71212
b00000000 !
#71275
b00000000 !
#71337
b00000000 !
#71400
b00000000 !
#71462
b00000000 !
#71525
b00000000 !
#71587
b00000000 !
#71650
b00000000 !
#71712
b00000000 !
#71775
b00000000 !
#71837
b00000000 !
#71900
b00000000 !
#71962
b00000000 !
#72025
b00000000 !
#72087
b00000000 !
#72150
b00000000 !
#72212
b00000000 !
#72275
b00000000 !
#72337
b00000000 !
#72400
b00000000 !
#72462
b00000000 !
#72525
b00000000 !
#72587
b00000000 !
#72650
b00000000 !
#72712
b00000000 !
#72775
b00000000 !
#72837
b00000000 !
#72900
b00000000 !
#72962
b00000000 !
#73025
b00000000 !
#73087
b00000000 !
#73150
b00000000 !
#73212
b00000000 !
#73275
b00000000 !
#73337
b00000000 !
#73400
b00000000 !
#73462
b00000000 !
#73525
b00000000 !
#73587
b00000000 !
#73650
b00000000 !
#73712
b00000000 !
#73775
b00000000 !
#73837
b00000000 !
#73900
b00000000 !
#73962
b00000000 !
#74025
b00000000 !
#74087
b00000000 !
#74150
b00000000 !
#74212
b00000000 !
#74275
b00000000 !
#74337
b00000000 !
#74400
b00000000 !
#74462
b00000000 !
#74525
b00000000 !
#74587
b00000000 !
#74650
b00000000 !
#74712
b00000000 !
#74775
b00000000 !
#74837
b00000000 !
#74900
b00000000 !
#74962
b00000000 !
#75025
b00000000 !
#75087
b00000000 !
#75150
b00000000 !
#75212
b00000000 !
#75275
b00000000 !
#75337
b00000000 !
#75400
b00000000 !
#75462
b00000000 !
#75525
b00000000 !
#75587
b00000000 !
#75650
b00000000 !
#75712
b00000000 !
#75775
b00000000 !
#75837
b00000000 !
#75900
b00000000 !
#75962
b00000000 !
#76025
b00000000 !
#76087
b00000000 !
#76150
b00000000 !
#76212
b00000000 !
#76275
b00000000 !
#76337
b00000000 !
#76400
b00000000 !
#76462
b00000000 !
#76525
b00000000 !
#76587
b00000000 !
#76650
b00000000 !
#76712
b00000000 !
#76775
b00000000 !
#76837
b00000000 !
#76900
b00000000 !
#76962
b00000000 !
#77025
b00000000 !
#77087
b00000000 !
#77150
b00000000 !
#77212
b00000000 !
#77275
b00000000 !
#77337
b00000000 !
#77400
b00000000 !
#77462
b00000000 !
#77525
b00000000 !
#77587
b00000000 !
#77650
b00000000 !
#77712
b00000000 !
#77775
b00000000 !
#77837
b00000000 !
#77900
b00000000 !
#77962
b00000000 !
#78025
b00000000 !
#78087
b00000000 !
#78150
b00000000 !
#78212
b00000000 !
#78275
b00000000 !
#78337
b00000000 !
#78400
b00000000 !
#78462
b00000000 !
#78525
b00000000 !
#78587
b00000000 !
#78650
b00000000 !
#78712
b00000000 !
#78775
b00000000 !
#78837
b00000000 !
#78900
b00000000 !
#78962
b00000000 !
#79025
b00000000 !
#79087
b00000000 !
#79150
b00000000 !
#79212
b00000000 !
#79275
b00000000 !
#79337
b00000000 !
#79400
b00000000 !
#79462
b00000000 !
#79525
b00000000 !
#79587
b00000000 !
#79650
b00000000 !
#79712
b00000000 !
#79775
b00000000 !
#79837
b00000000 !
#79900
b00000000 !
#79962
b00000000 !
#80025
b00000000 !
#80087
b00000000 !
#80150
b00000000 !
#80212
b00000000 !
#80275
b00000000 !
#80337
b00000000 !
#80400
b00000000 !
#80462
b00000000 !
#80525
b00000000 !
#80587
b00000000 !
#80650
b00000000 !
#80712
b00000000 !
#80775
b00000000 !
#80837
b00000000 !
#80900
b00000000 !
#80962
b00000000 !
#81025
b00000000 !
#81087
b00000000 !
#81150
b00000000 !
#81212
b00000000 !
#81275
b00000000 !
#81337
b00000000 !
#81400
b00000000 !
#81462
b00000000 !
#81525
b00000000 !
#81587
b00000000 !
#81650
b00000000 !
#81712
b00000000 !
#81775
b00000000 !
#81837
b00000000 !
#81900
b00000000 !
#81962
b00000000 !
#82025
b00000000 !
#82087
b00000000 !
#82150
b00000000 !
#82212
b00000000 !
#82275
b00000000 !
#82337
b00000000 !
#82400
b00000000 !
#82462
b00000000 !
#82525
b00000000 !
#82587
b00000000 !
#82650
b00000000 !
#82712
b00000000 !
#82775
b00000000 !
#82837
b00000000 !
#82900
b00000000 !
#82962
b00000000 !
#83025
b00000000 !
#83087
b00000000 !
#83150
b00000000 !
#83212
b00000000 !
#83275
b00000000 !
#83337
b00000000 !
#83400
b00000000 !
#83462
b00000000 !
#83525
b00000000 !
#83587
b00000000 !
#83650
b00000000 !
#83712
b00000000 !
#83775
b00000000 !
#83837
b00000000 !
#83900
b00000000 !
#83962
b00000000 !
#84025
b00000000 !
#84087
b00000000 !
#84150
b00000000 !
#84212
b00000000 !
#84275
b00000000 !
#84337
b00000000 !
#84400
b00000000 !
#84462
b00000000 !
#84525
b00000000 !
#84587
b00000000 !
#84650
b00000000 !
#84712
b00000000 !
#84775
b00000000 !
#84837
b00000000 !
#84900
b00000000 !
#84962
b00000000 !
#85025
b00000000 !
#85087
b00000000 !
#85150
b00000000 !
#85212
b00000000 !
#85275
b00000000 !
#85337
b00000000 !
