Code/Secureduino/simavr/simavr/trace.vcd
$timescale 10ns $end
$scope module logic $end
$var wire 8 ! UDR0 $end
$var wire 1 " UDRE0 $end
$upscope $end
$enddefinitions $end
$dumpvars
bxxxxxxxx !
x"
$end
#16875
1"
#16925
b01010010 !
#18237
b01100101 !
#19550
b01100001 !
#20862
b01100100 !
#22175
b00100000 !
#23487
b01100110 !
#24800
b01110010 !
#26112
b01101111 !
#27425
b01101101 !
#28737
b00100000 !
#30050
b01100101 !
#31362
b01100101 !
#32675
b01110000 !
#33987
b01110010 !
#35300
b01101111 !
#36612
b01101101 !
#37925
b00100000 !
#39237
b00110000 !
#40550
b01111000 !
#50312
b01100100 !
#51462
0"
#51587
1"
#51637
b01100101 !
#52787
0"
#52912
1"
#52962
b01100001 !
#54112
0"
#54237
1"
#54287
b01100100 !
#55437
0"
#55562
1"
#55612
b01100010 !
#56762
0"
#56887
1"
#56937
b01100101 !
#58087
0"
#58212
1"
#58262
b01100101 !
#59412
0"
#59537
1"
#59587
b01100110 !
#60950
b00100000 !
#62262
b00101101 !
#63575
b00101101 !
#64887
b00100000 !
#66200
b01110011 !
#67512
b01101000 !
#68825
b01101111 !
#70137
b01110101 !
#71450
b01101100 !
#72762
b01100100 !
#74075
b00100000 !
#75387
b01100010 !
#76700
b01100101 !
#78012
b00100000 !
#79325
b00110000 !
#80637
b01111000 !
#81950
b01100100 !
#83262
b01100101 !
#84575
b01100001 !
#85887
b01100100 !
#87200
b01100010 !
#88512
b01100101 !
#89825
b01100101 !
#91137
b01100110 !
#92562
b00001101 !
#92687
0"
#93812
1"
#93862
b00001010 !
#100087
b01010010 !
#101400
b01100101 !
#102712
b01100001 !
#104025
b01100100 !
#105337
b00100000 !
#106650
b01100110 !
#107962
b01110010 !
#109275
b01101111 !
#110587
b01101101 !
#111900
b00100000 !
#113212
b01100101 !
#114525
b01100101 !
#115837
b01110000 !
#117150
b01110010 !
#118462
b01101111 !
#119775
b01101101 !
#121087
b00100000 !
#122400
b00110000 !
#123712
b01111000 !
#133425
b01100011 !
#134575
0"
#134700
1"
#134750
b01100001 !
#135900
0"
#136025
1"
#136075
b01100110 !
#137225
0"
#137350
1"
#137400
b01100101 !
#138550
0"
#138675
1"
#138725
b01100110 !
#139875
0"
#140000
1"
#140050
b00110000 !
#141200
0"
#141325
1"
#141375
b00110000 !
#142525
0"
#142650
1"
#142700
b01100100 !
#144062
b00100000 !
#145375
b00101101 !
#146687
b00101101 !
#148000
b00100000 !
#149312
b01110011 !
#150625
b01101000 !
#151937
b01101111 !
#153250
b01110101 !
#154562
b01101100 !
#155875
b01100100 !
#157187
b00100000 !
#158500
b01100010 !
#159812
b01100101 !
#161125
b00100000 !
#162437
b00110000 !
#163750
b01111000 !
#165062
b01100011 !
#166375
b01100001 !
#167687
b01100110 !
#169000
b01100101 !
#170312
b01100110 !
#171625
b00110000 !
#172937
b00110000 !
#174250
b01100100 !
#175675
b00001101 !
#175800
0"
#176925
1"
#176975
b00001010 !
